Change Component Comment : Designator=C3 Old Comment=1u New Comment=10u
Change component parameters: Designator = "C3" ("C3"); Footprint = "CAP_0805"; UniqueID = "\CYWKFXCM" ("\CYWKFXCM")
Change component parameters (AddParameter): Name = "Part Number"; Value = ""; VariantName = "[No Variations]"
Change component parameters (AddParameter): Name = "Supplier"; Value = ""; VariantName = "[No Variations]"
Change component parameters (AddParameter): Name = "Value"; Value = "10u"; VariantName = "[No Variations]"
