G04*
G04 #@! TF.GenerationSoftware,Altium Limited,Altium Designer,20.2.6 (244)*
G04*
G04 Layer_Physical_Order=1*
G04 Layer_Color=255*
%FSLAX44Y44*%
%MOMM*%
G71*
G04*
G04 #@! TF.SameCoordinates,1C3B4399-50F2-4F1D-8FF7-95CD84B7109A*
G04*
G04*
G04 #@! TF.FilePolarity,Positive*
G04*
G01*
G75*
%ADD10C,0.2500*%
%ADD12C,0.4000*%
%ADD15C,0.1500*%
G04:AMPARAMS|DCode=16|XSize=0.65mm|YSize=1.2mm|CornerRadius=0.0488mm|HoleSize=0mm|Usage=FLASHONLY|Rotation=0.000|XOffset=0mm|YOffset=0mm|HoleType=Round|Shape=RoundedRectangle|*
%AMROUNDEDRECTD16*
21,1,0.6500,1.1025,0,0,0.0*
21,1,0.5525,1.2000,0,0,0.0*
1,1,0.0975,0.2763,-0.5513*
1,1,0.0975,-0.2763,-0.5513*
1,1,0.0975,-0.2763,0.5513*
1,1,0.0975,0.2763,0.5513*
%
%ADD16ROUNDEDRECTD16*%
%ADD17R,1.1000X0.6500*%
G04:AMPARAMS|DCode=18|XSize=0.65mm|YSize=1.2mm|CornerRadius=0.0488mm|HoleSize=0mm|Usage=FLASHONLY|Rotation=270.000|XOffset=0mm|YOffset=0mm|HoleType=Round|Shape=RoundedRectangle|*
%AMROUNDEDRECTD18*
21,1,0.6500,1.1025,0,0,270.0*
21,1,0.5525,1.2000,0,0,270.0*
1,1,0.0975,-0.5513,-0.2763*
1,1,0.0975,-0.5513,0.2763*
1,1,0.0975,0.5513,0.2763*
1,1,0.0975,0.5513,-0.2763*
%
%ADD18ROUNDEDRECTD18*%
%ADD19R,0.9500X0.8500*%
%ADD20R,0.8500X0.9500*%
%ADD21R,0.8000X0.8000*%
%ADD22R,1.0500X1.0000*%
%ADD23R,1.0000X1.0500*%
%ADD39C,0.5000*%
%ADD40C,0.3000*%
%ADD41C,0.4500*%
%ADD42C,1.6500*%
%ADD43R,1.6500X1.6500*%
%ADD44R,1.6000X1.6000*%
%ADD45C,1.6000*%
%ADD46C,5.5000*%
%ADD47C,0.6000*%
%ADD48C,0.7500*%
G36*
X337500Y0D02*
X0D01*
Y610000D01*
X337500D01*
Y0D01*
D02*
G37*
%LPC*%
G36*
X165000Y608059D02*
X165000Y608059D01*
X42600D01*
X41430Y607826D01*
X40437Y607163D01*
X40437Y607163D01*
X34521Y601247D01*
X32915Y601912D01*
X30500Y602230D01*
X28085Y601912D01*
X25835Y600980D01*
X23903Y599497D01*
X22420Y597565D01*
X21488Y595315D01*
X21170Y592900D01*
X21488Y590485D01*
X22364Y588369D01*
X13198Y579202D01*
X12645Y578376D01*
X12451Y577400D01*
Y531250D01*
X9000D01*
Y518750D01*
X21000D01*
Y531250D01*
X17549D01*
Y576344D01*
X25969Y584765D01*
X28085Y583888D01*
X30500Y583570D01*
X32915Y583888D01*
X35031Y584765D01*
X39951Y579844D01*
Y577937D01*
X39750Y576750D01*
X21250D01*
Y558250D01*
X27751D01*
Y530000D01*
Y490200D01*
X27945Y489225D01*
X28498Y488398D01*
X41128Y475768D01*
Y466738D01*
X41599Y465599D01*
X42737Y465127D01*
X48263D01*
X48770Y465338D01*
X49422Y465586D01*
X50429Y464967D01*
X50444Y464944D01*
X51267Y464394D01*
X52238Y464201D01*
X52500D01*
Y472250D01*
Y480299D01*
X52238D01*
X51267Y480106D01*
X50444Y479556D01*
X50429Y479533D01*
X49422Y478914D01*
X48770Y479162D01*
X48263Y479372D01*
X44732D01*
X32849Y491256D01*
Y527201D01*
X41128D01*
Y524238D01*
X41599Y523099D01*
X42737Y522627D01*
X48263D01*
X48770Y522838D01*
X49422Y523086D01*
X50429Y522467D01*
X50444Y522444D01*
X51267Y521894D01*
X52238Y521701D01*
X52500D01*
Y529750D01*
Y537799D01*
X52238D01*
X51267Y537606D01*
X50444Y537056D01*
X50429Y537033D01*
X49422Y536414D01*
X48770Y536662D01*
X48263Y536873D01*
X42737D01*
X41599Y536401D01*
X41128Y535262D01*
Y532299D01*
X32849D01*
Y558250D01*
X39750D01*
Y559919D01*
X41020Y560375D01*
X61951Y539444D01*
Y536873D01*
X61737D01*
X61230Y536662D01*
X60578Y536414D01*
X59571Y537033D01*
X59556Y537056D01*
X58733Y537606D01*
X57762Y537799D01*
X57500D01*
Y529750D01*
Y521701D01*
X57762D01*
X58733Y521894D01*
X59556Y522444D01*
X59571Y522467D01*
X60578Y523086D01*
X61230Y522838D01*
X61737Y522627D01*
X67263D01*
X68401Y523099D01*
X68873Y524238D01*
Y535262D01*
X68401Y536401D01*
X67263Y536873D01*
X67049D01*
Y540500D01*
X66855Y541475D01*
X66302Y542302D01*
X49303Y559302D01*
X50142Y560259D01*
X51235Y559420D01*
X53485Y558488D01*
X55900Y558170D01*
X58315Y558488D01*
X60565Y559420D01*
X62497Y560903D01*
X63980Y562835D01*
X64912Y565085D01*
X65230Y567500D01*
X64912Y569915D01*
X63980Y572165D01*
X62497Y574097D01*
X60565Y575580D01*
X58315Y576512D01*
X55900Y576830D01*
X53485Y576512D01*
X51235Y575580D01*
X49303Y574097D01*
X47820Y572165D01*
X46888Y569915D01*
X46570Y567500D01*
X46888Y565085D01*
X47820Y562835D01*
X48659Y561742D01*
X47702Y560902D01*
X45049Y563556D01*
Y580900D01*
X44855Y581875D01*
X44302Y582702D01*
X38635Y588369D01*
X39512Y590485D01*
X39830Y592900D01*
X39512Y595315D01*
X38847Y596921D01*
X43867Y601941D01*
X50402D01*
X50833Y600671D01*
X49303Y599497D01*
X47820Y597565D01*
X46888Y595315D01*
X46570Y592900D01*
X46888Y590485D01*
X47820Y588235D01*
X49303Y586303D01*
X51235Y584820D01*
X53485Y583888D01*
X55900Y583570D01*
X58315Y583888D01*
X60565Y584820D01*
X62497Y586303D01*
X63980Y588235D01*
X64912Y590485D01*
X65230Y592900D01*
X64912Y595315D01*
X63980Y597565D01*
X62497Y599497D01*
X60967Y600671D01*
X61398Y601941D01*
X75802D01*
X76233Y600671D01*
X74703Y599497D01*
X73220Y597565D01*
X72288Y595315D01*
X71970Y592900D01*
X72288Y590485D01*
X73220Y588235D01*
X74703Y586303D01*
X76635Y584820D01*
X78885Y583888D01*
X81300Y583570D01*
X83715Y583888D01*
X85831Y584765D01*
X92451Y578144D01*
Y532581D01*
X92227Y532411D01*
X90506Y532701D01*
X90384Y532884D01*
X89061Y533768D01*
X87500Y534078D01*
X85939Y533768D01*
X84616Y532884D01*
X83732Y531561D01*
X83422Y530000D01*
X83732Y528439D01*
X84616Y527116D01*
X85206Y526722D01*
Y510000D01*
X85381Y509122D01*
X85878Y508378D01*
X90206Y504050D01*
Y496069D01*
X88209D01*
X86853Y496974D01*
X85000Y497343D01*
X83147Y496974D01*
X81575Y495925D01*
X80526Y494353D01*
X80208Y492754D01*
X77272Y489819D01*
X68069D01*
Y493461D01*
X68401Y493599D01*
X68873Y494738D01*
Y505762D01*
X68401Y506901D01*
X67263Y507373D01*
X61737D01*
X60599Y506901D01*
X60127Y505762D01*
Y494738D01*
X60599Y493599D01*
X60931Y493461D01*
Y486250D01*
Y479783D01*
X59748Y479424D01*
X59571Y479533D01*
X59556Y479556D01*
X58733Y480106D01*
X57762Y480299D01*
X57500D01*
Y472250D01*
Y464201D01*
X57762D01*
X58733Y464394D01*
X59556Y464944D01*
X59571Y464967D01*
X60578Y465586D01*
X61230Y465338D01*
X61737Y465127D01*
X67263D01*
X68401Y465599D01*
X68873Y466738D01*
Y477762D01*
X68401Y478901D01*
X68069Y479039D01*
Y482682D01*
X78750D01*
X80116Y482953D01*
X81273Y483727D01*
X85254Y487707D01*
X86853Y488026D01*
X87661Y488565D01*
X88931Y487901D01*
Y483500D01*
X86250D01*
Y471500D01*
X88931D01*
Y463500D01*
X86250D01*
Y451500D01*
X88931D01*
Y443978D01*
X77477Y432523D01*
X76703Y431366D01*
X76431Y430000D01*
Y355000D01*
X76703Y353634D01*
X77477Y352477D01*
X108750Y321203D01*
Y314000D01*
X111431D01*
Y306000D01*
X108750D01*
Y294000D01*
X111181D01*
Y285750D01*
X109500D01*
Y274250D01*
X111181D01*
Y266000D01*
X108750D01*
Y254000D01*
X111181D01*
Y245750D01*
X109500D01*
Y234250D01*
X111181D01*
Y222750D01*
X111453Y221385D01*
X112227Y220227D01*
X128852Y203602D01*
X130009Y202828D01*
X131375Y202556D01*
X141766D01*
X142064Y202357D01*
X143625Y202047D01*
X145186Y202357D01*
X146509Y203241D01*
X147393Y204564D01*
X147703Y206125D01*
X147625Y206520D01*
X159052Y217948D01*
X159605Y218775D01*
X159799Y219750D01*
Y234250D01*
X162500D01*
Y245750D01*
X153365D01*
X153141Y245922D01*
X152453Y247020D01*
X152549Y247500D01*
Y342500D01*
X152355Y343475D01*
X151802Y344302D01*
X117549Y378556D01*
Y397500D01*
Y426444D01*
X133902Y442798D01*
X134455Y443624D01*
X134649Y444600D01*
Y558544D01*
X136765Y559420D01*
X138697Y560903D01*
X140180Y562835D01*
X141112Y565085D01*
X141430Y567500D01*
X141112Y569915D01*
X140180Y572165D01*
X138697Y574097D01*
X136765Y575580D01*
X134515Y576512D01*
X132100Y576830D01*
X129685Y576512D01*
X127435Y575580D01*
X125503Y574097D01*
X124020Y572165D01*
X123088Y569915D01*
X122770Y567500D01*
X123088Y565085D01*
X124020Y562835D01*
X125503Y560903D01*
X127435Y559420D01*
X129551Y558544D01*
Y445656D01*
X113198Y429302D01*
X112645Y428475D01*
X112451Y427500D01*
Y400549D01*
X109500D01*
Y402250D01*
X96500D01*
Y393750D01*
X109500D01*
Y395451D01*
X112451D01*
Y377500D01*
X112645Y376525D01*
X113198Y375698D01*
X147451Y341444D01*
Y260081D01*
X147227Y259911D01*
X145506Y260201D01*
X145384Y260384D01*
X145049Y260608D01*
Y280000D01*
Y327500D01*
X144855Y328475D01*
X144302Y329302D01*
X92549Y381056D01*
Y414451D01*
X96500D01*
Y412750D01*
X109500D01*
Y421250D01*
X97761D01*
X97511Y421250D01*
X96394Y422413D01*
X96400Y422795D01*
X121802Y448198D01*
X122355Y449025D01*
X122549Y450000D01*
Y500273D01*
X122355Y501249D01*
X121802Y502076D01*
X97549Y526329D01*
Y562247D01*
X97707Y562334D01*
X98819Y562576D01*
X100103Y560903D01*
X102035Y559420D01*
X104285Y558488D01*
X106700Y558170D01*
X109115Y558488D01*
X111365Y559420D01*
X113297Y560903D01*
X114780Y562835D01*
X115712Y565085D01*
X116030Y567500D01*
X115712Y569915D01*
X114780Y572165D01*
X113297Y574097D01*
X111365Y575580D01*
X109115Y576512D01*
X106700Y576830D01*
X104285Y576512D01*
X102035Y575580D01*
X100103Y574097D01*
X98819Y572424D01*
X97707Y572666D01*
X97549Y572753D01*
Y579200D01*
X97355Y580175D01*
X96802Y581002D01*
X89435Y588369D01*
X90312Y590485D01*
X90630Y592900D01*
X90312Y595315D01*
X89380Y597565D01*
X87897Y599497D01*
X86367Y600671D01*
X86798Y601941D01*
X101202D01*
X101633Y600671D01*
X100103Y599497D01*
X98620Y597565D01*
X97688Y595315D01*
X97370Y592900D01*
X97688Y590485D01*
X98620Y588235D01*
X100103Y586303D01*
X102035Y584820D01*
X104285Y583888D01*
X106700Y583570D01*
X109115Y583888D01*
X111365Y584820D01*
X113297Y586303D01*
X114780Y588235D01*
X115712Y590485D01*
X116030Y592900D01*
X115712Y595315D01*
X114780Y597565D01*
X113297Y599497D01*
X111767Y600671D01*
X112198Y601941D01*
X126602D01*
X127033Y600671D01*
X125503Y599497D01*
X124020Y597565D01*
X123088Y595315D01*
X122770Y592900D01*
X123088Y590485D01*
X124020Y588235D01*
X125503Y586303D01*
X127435Y584820D01*
X129685Y583888D01*
X132100Y583570D01*
X134515Y583888D01*
X136765Y584820D01*
X138697Y586303D01*
X140180Y588235D01*
X141112Y590485D01*
X141430Y592900D01*
X141112Y595315D01*
X140180Y597565D01*
X138697Y599497D01*
X137167Y600671D01*
X137598Y601941D01*
X150359D01*
X150790Y600671D01*
X150190Y600210D01*
X148547Y598069D01*
X147514Y595576D01*
X147491Y595400D01*
X157500D01*
Y592900D01*
X160000D01*
Y582891D01*
X160176Y582914D01*
X162669Y583947D01*
X164810Y585590D01*
X165671Y586712D01*
X166941Y586280D01*
Y580400D01*
X166941Y580400D01*
X167174Y579230D01*
X167837Y578237D01*
X174553Y571521D01*
X173888Y569915D01*
X173570Y567500D01*
X173888Y565085D01*
X174820Y562835D01*
X176303Y560903D01*
X178235Y559420D01*
X179131Y559049D01*
Y498462D01*
X179075Y498425D01*
X178026Y496853D01*
X177657Y495000D01*
X178026Y493147D01*
X179075Y491575D01*
X180647Y490526D01*
X182500Y490157D01*
X184353Y490526D01*
X185924Y491575D01*
X186974Y493147D01*
X187343Y495000D01*
X186974Y496853D01*
X186269Y497910D01*
Y558883D01*
X187565Y559420D01*
X189497Y560903D01*
X190980Y562835D01*
X191912Y565085D01*
X192230Y567500D01*
X191912Y569915D01*
X190980Y572165D01*
X189497Y574097D01*
X187565Y575580D01*
X185315Y576512D01*
X182900Y576830D01*
X180485Y576512D01*
X178879Y575847D01*
X173059Y581667D01*
Y589169D01*
X174329Y589421D01*
X174820Y588235D01*
X176303Y586303D01*
X178235Y584820D01*
X180485Y583888D01*
X182900Y583570D01*
X185315Y583888D01*
X187565Y584820D01*
X189497Y586303D01*
X190980Y588235D01*
X191912Y590485D01*
X192230Y592900D01*
X191912Y595315D01*
X190980Y597565D01*
X189497Y599497D01*
X187565Y600980D01*
X185315Y601912D01*
X182900Y602230D01*
X180485Y601912D01*
X178235Y600980D01*
X176303Y599497D01*
X174820Y597565D01*
X174329Y596379D01*
X173059Y596631D01*
Y600000D01*
X173059Y600000D01*
X172826Y601171D01*
X172163Y602163D01*
X172163Y602163D01*
X167163Y607163D01*
X166171Y607826D01*
X165000Y608059D01*
D02*
G37*
G36*
X312400Y602909D02*
Y595400D01*
X319909D01*
X319886Y595576D01*
X318853Y598069D01*
X317210Y600210D01*
X315069Y601853D01*
X312576Y602886D01*
X312400Y602909D01*
D02*
G37*
G36*
X307400D02*
X307224Y602886D01*
X304731Y601853D01*
X302590Y600210D01*
X300947Y598069D01*
X299914Y595576D01*
X299891Y595400D01*
X307400D01*
Y602909D01*
D02*
G37*
G36*
X284500Y602230D02*
X282085Y601912D01*
X279835Y600980D01*
X277903Y599497D01*
X276420Y597565D01*
X275488Y595315D01*
X275170Y592900D01*
X275488Y590485D01*
X276420Y588235D01*
X277903Y586303D01*
X279835Y584820D01*
X282085Y583888D01*
X284500Y583570D01*
X286915Y583888D01*
X289165Y584820D01*
X291097Y586303D01*
X292580Y588235D01*
X293512Y590485D01*
X293830Y592900D01*
X293512Y595315D01*
X292580Y597565D01*
X291097Y599497D01*
X289165Y600980D01*
X286915Y601912D01*
X284500Y602230D01*
D02*
G37*
G36*
X259100D02*
X256685Y601912D01*
X254435Y600980D01*
X252503Y599497D01*
X251020Y597565D01*
X250088Y595315D01*
X249770Y592900D01*
X250088Y590485D01*
X251020Y588235D01*
X252503Y586303D01*
X254435Y584820D01*
X256685Y583888D01*
X259100Y583570D01*
X261515Y583888D01*
X263765Y584820D01*
X265697Y586303D01*
X267180Y588235D01*
X268112Y590485D01*
X268430Y592900D01*
X268112Y595315D01*
X267180Y597565D01*
X265697Y599497D01*
X263765Y600980D01*
X261515Y601912D01*
X259100Y602230D01*
D02*
G37*
G36*
X233700D02*
X231285Y601912D01*
X229035Y600980D01*
X227103Y599497D01*
X225620Y597565D01*
X224688Y595315D01*
X224370Y592900D01*
X224688Y590485D01*
X225620Y588235D01*
X227103Y586303D01*
X229035Y584820D01*
X231285Y583888D01*
X233700Y583570D01*
X236115Y583888D01*
X238365Y584820D01*
X240297Y586303D01*
X241780Y588235D01*
X242712Y590485D01*
X243030Y592900D01*
X242712Y595315D01*
X241780Y597565D01*
X240297Y599497D01*
X238365Y600980D01*
X236115Y601912D01*
X233700Y602230D01*
D02*
G37*
G36*
X208300D02*
X205885Y601912D01*
X203635Y600980D01*
X201703Y599497D01*
X200220Y597565D01*
X199288Y595315D01*
X198970Y592900D01*
X199288Y590485D01*
X200220Y588235D01*
X201703Y586303D01*
X203635Y584820D01*
X205885Y583888D01*
X208300Y583570D01*
X210715Y583888D01*
X212965Y584820D01*
X214897Y586303D01*
X216380Y588235D01*
X217312Y590485D01*
X217630Y592900D01*
X217312Y595315D01*
X216380Y597565D01*
X214897Y599497D01*
X212965Y600980D01*
X210715Y601912D01*
X208300Y602230D01*
D02*
G37*
G36*
X319909Y590400D02*
X312400D01*
Y582891D01*
X312576Y582914D01*
X315069Y583947D01*
X317210Y585590D01*
X318853Y587731D01*
X319886Y590224D01*
X319909Y590400D01*
D02*
G37*
G36*
X307400D02*
X299891D01*
X299914Y590224D01*
X300947Y587731D01*
X302590Y585590D01*
X304731Y583947D01*
X307224Y582914D01*
X307400Y582891D01*
Y590400D01*
D02*
G37*
G36*
X155000D02*
X147491D01*
X147514Y590224D01*
X148547Y587731D01*
X150190Y585590D01*
X152331Y583947D01*
X154824Y582914D01*
X155000Y582891D01*
Y590400D01*
D02*
G37*
G36*
X210800Y577509D02*
Y570000D01*
X218309D01*
X218286Y570176D01*
X217253Y572669D01*
X215610Y574810D01*
X213469Y576453D01*
X210976Y577486D01*
X210800Y577509D01*
D02*
G37*
G36*
X205800D02*
X205624Y577486D01*
X203131Y576453D01*
X200990Y574810D01*
X199347Y572669D01*
X198314Y570176D01*
X198291Y570000D01*
X205800D01*
Y577509D01*
D02*
G37*
G36*
X160000D02*
Y570000D01*
X167509D01*
X167486Y570176D01*
X166453Y572669D01*
X164810Y574810D01*
X162669Y576453D01*
X160176Y577486D01*
X160000Y577509D01*
D02*
G37*
G36*
X155000D02*
X154824Y577486D01*
X152331Y576453D01*
X150190Y574810D01*
X148547Y572669D01*
X147514Y570176D01*
X147491Y570000D01*
X155000D01*
Y577509D01*
D02*
G37*
G36*
X81300Y576830D02*
X78885Y576512D01*
X76635Y575580D01*
X74703Y574097D01*
X73220Y572165D01*
X72288Y569915D01*
X71970Y567500D01*
X72288Y565085D01*
X73220Y562835D01*
X74703Y560903D01*
X76635Y559420D01*
X78885Y558488D01*
X81300Y558170D01*
X83715Y558488D01*
X85965Y559420D01*
X87897Y560903D01*
X89380Y562835D01*
X90312Y565085D01*
X90630Y567500D01*
X90312Y569915D01*
X89380Y572165D01*
X87897Y574097D01*
X85965Y575580D01*
X83715Y576512D01*
X81300Y576830D01*
D02*
G37*
G36*
X218309Y565000D02*
X210800D01*
Y557491D01*
X210976Y557514D01*
X213469Y558547D01*
X215610Y560190D01*
X217253Y562331D01*
X218286Y564824D01*
X218309Y565000D01*
D02*
G37*
G36*
X205800D02*
X198291D01*
X198314Y564824D01*
X199347Y562331D01*
X200990Y560190D01*
X203131Y558547D01*
X205624Y557514D01*
X205800Y557491D01*
Y565000D01*
D02*
G37*
G36*
X167509D02*
X160000D01*
Y557491D01*
X160176Y557514D01*
X162669Y558547D01*
X164810Y560190D01*
X166453Y562331D01*
X167486Y564824D01*
X167509Y565000D01*
D02*
G37*
G36*
X155000D02*
X147491D01*
X147514Y564824D01*
X148547Y562331D01*
X150190Y560190D01*
X152331Y558547D01*
X154824Y557514D01*
X155000Y557491D01*
Y565000D01*
D02*
G37*
G36*
X232700Y540000D02*
X225200D01*
Y532500D01*
X232700D01*
Y540000D01*
D02*
G37*
G36*
X220200D02*
X212700D01*
Y532500D01*
X220200D01*
Y540000D01*
D02*
G37*
G36*
X309900Y576830D02*
X307485Y576512D01*
X305235Y575580D01*
X303303Y574097D01*
X301820Y572165D01*
X300888Y569915D01*
X300570Y567500D01*
X300888Y565085D01*
X301820Y562835D01*
X303303Y560903D01*
X305235Y559420D01*
X307485Y558488D01*
X309900Y558170D01*
X311356Y558362D01*
X312450Y557375D01*
Y540501D01*
X309249D01*
Y530001D01*
X320749D01*
Y540501D01*
X317548D01*
Y558993D01*
X317354Y559968D01*
X316802Y560795D01*
X316583Y561014D01*
X317980Y562835D01*
X318912Y565085D01*
X319230Y567500D01*
X318912Y569915D01*
X317980Y572165D01*
X316497Y574097D01*
X314565Y575580D01*
X312315Y576512D01*
X309900Y576830D01*
D02*
G37*
G36*
X284500D02*
X282085Y576512D01*
X279835Y575580D01*
X277903Y574097D01*
X276420Y572165D01*
X275488Y569915D01*
X275170Y567500D01*
X275488Y565085D01*
X276420Y562835D01*
X277903Y560903D01*
X279835Y559420D01*
X282085Y558488D01*
X284500Y558170D01*
X286915Y558488D01*
X287616Y558779D01*
X292451Y553944D01*
Y540500D01*
X289250D01*
Y530000D01*
X300750D01*
Y540500D01*
X297549D01*
Y555000D01*
X297355Y555975D01*
X296802Y556802D01*
X291794Y561811D01*
X292580Y562835D01*
X293512Y565085D01*
X293830Y567500D01*
X293512Y569915D01*
X292580Y572165D01*
X291097Y574097D01*
X289165Y575580D01*
X286915Y576512D01*
X284500Y576830D01*
D02*
G37*
G36*
X259100D02*
X256685Y576512D01*
X254435Y575580D01*
X252503Y574097D01*
X251020Y572165D01*
X250088Y569915D01*
X249770Y567500D01*
X250088Y565085D01*
X251020Y562835D01*
X252503Y560903D01*
X254435Y559420D01*
X256685Y558488D01*
X259100Y558170D01*
X261515Y558488D01*
X263631Y559365D01*
X271645Y551350D01*
Y540500D01*
X269250D01*
Y530000D01*
X280750D01*
Y540500D01*
X276743D01*
Y552406D01*
X276549Y553382D01*
X275996Y554209D01*
X267235Y562969D01*
X268112Y565085D01*
X268430Y567500D01*
X268112Y569915D01*
X267180Y572165D01*
X265697Y574097D01*
X263765Y575580D01*
X261515Y576512D01*
X259100Y576830D01*
D02*
G37*
G36*
X233700D02*
X231285Y576512D01*
X229035Y575580D01*
X227103Y574097D01*
X225620Y572165D01*
X224688Y569915D01*
X224370Y567500D01*
X224688Y565085D01*
X225620Y562835D01*
X227103Y560903D01*
X229035Y559420D01*
X231285Y558488D01*
X233700Y558170D01*
X236115Y558488D01*
X238231Y559365D01*
X252451Y545144D01*
Y540500D01*
X249250D01*
Y530000D01*
X260750D01*
Y540500D01*
X257549D01*
Y546200D01*
X257355Y547175D01*
X256802Y548002D01*
X241835Y562969D01*
X242712Y565085D01*
X243030Y567500D01*
X242712Y569915D01*
X241780Y572165D01*
X240297Y574097D01*
X238365Y575580D01*
X236115Y576512D01*
X233700Y576830D01*
D02*
G37*
G36*
X232700Y527500D02*
X225200D01*
Y520000D01*
X232700D01*
Y527500D01*
D02*
G37*
G36*
X220200D02*
X212700D01*
Y520000D01*
X220200D01*
Y527500D01*
D02*
G37*
G36*
X22000Y517250D02*
X17500D01*
Y512500D01*
X22000D01*
Y517250D01*
D02*
G37*
G36*
X12500D02*
X8000D01*
Y512500D01*
X12500D01*
Y517250D01*
D02*
G37*
G36*
X22000Y507500D02*
X17500D01*
Y502750D01*
X22000D01*
Y507500D01*
D02*
G37*
G36*
X12500D02*
X8000D01*
Y502750D01*
X12500D01*
Y507500D01*
D02*
G37*
G36*
X75000Y499284D02*
X74317Y499148D01*
X73738Y498762D01*
X73351Y498183D01*
X73216Y497500D01*
Y495000D01*
X73351Y494317D01*
X73738Y493738D01*
X74317Y493352D01*
X75000Y493216D01*
X75683Y493352D01*
X76262Y493738D01*
X76649Y494317D01*
X76784Y495000D01*
Y497500D01*
X76649Y498183D01*
X76262Y498762D01*
X75683Y499148D01*
X75000Y499284D01*
D02*
G37*
G36*
X48263Y507373D02*
X42737D01*
X41599Y506901D01*
X41128Y505762D01*
Y494738D01*
X41599Y493599D01*
X42737Y493128D01*
X48263D01*
X49401Y493599D01*
X49873Y494738D01*
Y505762D01*
X49401Y506901D01*
X48263Y507373D01*
D02*
G37*
G36*
X320749Y525001D02*
X309249D01*
Y514501D01*
X312451D01*
Y500000D01*
X310000D01*
Y490000D01*
X320000D01*
Y500000D01*
X317549D01*
Y514501D01*
X320749D01*
Y525001D01*
D02*
G37*
G36*
X260750Y525000D02*
X249250D01*
Y514500D01*
X252452D01*
Y499999D01*
X250001D01*
Y489999D01*
X260001D01*
Y499999D01*
X257550D01*
Y514500D01*
X260750D01*
Y525000D01*
D02*
G37*
G36*
X300750D02*
X289250D01*
Y514500D01*
X292452D01*
Y499999D01*
X290001D01*
Y489999D01*
X300001D01*
Y499999D01*
X297550D01*
Y514500D01*
X300750D01*
Y525000D01*
D02*
G37*
G36*
X280750D02*
X269250D01*
Y514500D01*
X272452D01*
Y499999D01*
X270001D01*
Y489999D01*
X280001D01*
Y494753D01*
X280050Y494999D01*
X280001Y495245D01*
Y499999D01*
X277550D01*
Y514500D01*
X280750D01*
Y525000D01*
D02*
G37*
G36*
X321000Y486000D02*
X317500D01*
Y482500D01*
X321000D01*
Y486000D01*
D02*
G37*
G36*
X312500D02*
X309000D01*
Y482500D01*
X312500D01*
Y486000D01*
D02*
G37*
G36*
X261001Y485999D02*
X257501D01*
Y482499D01*
X261001D01*
Y485999D01*
D02*
G37*
G36*
X252501D02*
X249001D01*
Y482499D01*
X252501D01*
Y485999D01*
D02*
G37*
G36*
X301001Y485999D02*
X297501D01*
Y482499D01*
X301001D01*
Y485999D01*
D02*
G37*
G36*
X292501D02*
X289001D01*
Y482499D01*
X292501D01*
Y485999D01*
D02*
G37*
G36*
X281001D02*
X277501D01*
Y482499D01*
X281001D01*
Y485999D01*
D02*
G37*
G36*
X272501D02*
X269001D01*
Y482499D01*
X272501D01*
Y485999D01*
D02*
G37*
G36*
X321000Y477500D02*
X317500D01*
Y474000D01*
X321000D01*
Y477500D01*
D02*
G37*
G36*
X312500D02*
X309000D01*
Y474000D01*
X312500D01*
Y477500D01*
D02*
G37*
G36*
X261001Y477499D02*
X257501D01*
Y473999D01*
X261001D01*
Y477499D01*
D02*
G37*
G36*
X252501D02*
X249001D01*
Y473999D01*
X252501D01*
Y477499D01*
D02*
G37*
G36*
X301001Y477499D02*
X297501D01*
Y473999D01*
X301001D01*
Y477499D01*
D02*
G37*
G36*
X292501D02*
X289001D01*
Y473999D01*
X292501D01*
Y477499D01*
D02*
G37*
G36*
X281001Y477499D02*
X277501D01*
Y473999D01*
X281001D01*
Y477499D01*
D02*
G37*
G36*
X272501D02*
X269001D01*
Y473999D01*
X272501D01*
Y477499D01*
D02*
G37*
G36*
X176000Y446750D02*
X172250D01*
Y442500D01*
X176000D01*
Y446750D01*
D02*
G37*
G36*
X167250D02*
X163500D01*
Y442500D01*
X167250D01*
Y446750D01*
D02*
G37*
G36*
X48263Y449873D02*
X42737D01*
X41599Y449401D01*
X41128Y448262D01*
Y437238D01*
X41599Y436099D01*
X42737Y435628D01*
X48263D01*
X49401Y436099D01*
X49873Y437238D01*
Y448262D01*
X49401Y449401D01*
X48263Y449873D01*
D02*
G37*
G36*
X176000Y437500D02*
X172250D01*
Y433250D01*
X176000D01*
Y437500D01*
D02*
G37*
G36*
X167250D02*
X163500D01*
Y433250D01*
X167250D01*
Y437500D01*
D02*
G37*
G36*
X54750Y427000D02*
X50000D01*
Y422500D01*
X54750D01*
Y427000D01*
D02*
G37*
G36*
X45000D02*
X40250D01*
Y422500D01*
X45000D01*
Y427000D01*
D02*
G37*
G36*
X54750Y417500D02*
X50000D01*
Y413000D01*
X54750D01*
Y417500D01*
D02*
G37*
G36*
X45000D02*
X40250D01*
Y413000D01*
X45000D01*
Y417500D01*
D02*
G37*
G36*
X190500Y445750D02*
X180000D01*
Y434250D01*
X185451D01*
Y432750D01*
X185645Y431774D01*
X186198Y430948D01*
X190214Y426931D01*
X190186Y426877D01*
X190186Y426877D01*
X189599Y425750D01*
X188896Y425750D01*
X179500D01*
Y419549D01*
X133500D01*
Y421250D01*
X120500D01*
Y412750D01*
X119500D01*
Y410000D01*
X127000D01*
X134500D01*
Y412750D01*
X133500D01*
Y414451D01*
X179500D01*
Y414250D01*
X182201D01*
Y398872D01*
X177237D01*
X176099Y398401D01*
X175627Y397262D01*
Y391738D01*
X176099Y390599D01*
X177237Y390127D01*
X188263D01*
X189401Y390599D01*
X189873Y391738D01*
Y397262D01*
X189401Y398401D01*
X188263Y398872D01*
X187299D01*
Y414250D01*
X190000D01*
Y424554D01*
X190000Y425349D01*
X191182Y425964D01*
X195000Y422145D01*
Y414250D01*
X201895D01*
X209701Y406444D01*
Y398872D01*
X206737D01*
X205599Y398401D01*
X205128Y397262D01*
Y391738D01*
X205338Y391230D01*
X205586Y390578D01*
X204967Y389571D01*
X204944Y389556D01*
X204394Y388733D01*
X204201Y387762D01*
Y387500D01*
X212250D01*
X220299D01*
Y387762D01*
X220106Y388733D01*
X219556Y389556D01*
X219533Y389571D01*
X218914Y390578D01*
X219162Y391230D01*
X219373Y391738D01*
Y397262D01*
X218901Y398401D01*
X217763Y398872D01*
X214799D01*
Y407500D01*
X214605Y408475D01*
X214052Y409302D01*
X205500Y417855D01*
Y425750D01*
X198605D01*
X190549Y433806D01*
Y437250D01*
X190500Y437496D01*
Y445750D01*
D02*
G37*
G36*
X197300Y539078D02*
X194951Y538768D01*
X192761Y537862D01*
X190881Y536419D01*
X189439Y534539D01*
X188532Y532350D01*
X188222Y530000D01*
X188532Y527650D01*
X189439Y525461D01*
X190881Y523581D01*
X192761Y522139D01*
X194751Y521314D01*
Y470200D01*
X194945Y469225D01*
X195498Y468398D01*
X224951Y438944D01*
Y378049D01*
X219373D01*
Y378262D01*
X219162Y378770D01*
X218914Y379422D01*
X219533Y380429D01*
X219556Y380444D01*
X220106Y381267D01*
X220299Y382238D01*
Y382500D01*
X212250D01*
X204201D01*
Y382238D01*
X204394Y381267D01*
X204944Y380444D01*
X204967Y380429D01*
X205586Y379422D01*
X205338Y378770D01*
X205128Y378262D01*
Y372738D01*
X205599Y371599D01*
X206737Y371127D01*
X217763D01*
X218901Y371599D01*
X219373Y372738D01*
Y372951D01*
X224951D01*
Y356056D01*
X218944Y350049D01*
X215500D01*
Y353250D01*
X205000D01*
Y341750D01*
X215500D01*
Y344951D01*
X220000D01*
X220975Y345145D01*
X221802Y345698D01*
X229302Y353198D01*
X229855Y354025D01*
X230049Y355000D01*
Y375000D01*
Y440000D01*
X229855Y440975D01*
X229302Y441802D01*
X199849Y471256D01*
Y521314D01*
X201839Y522139D01*
X203719Y523581D01*
X205161Y525461D01*
X206068Y527650D01*
X206378Y530000D01*
X206068Y532350D01*
X205161Y534539D01*
X203719Y536419D01*
X201839Y537862D01*
X199650Y538768D01*
X197300Y539078D01*
D02*
G37*
G36*
X257250Y329500D02*
X252500D01*
Y325000D01*
X257250D01*
Y329500D01*
D02*
G37*
G36*
X247500D02*
X242750D01*
Y325000D01*
X247500D01*
Y329500D01*
D02*
G37*
G36*
X217250Y322500D02*
X212500D01*
Y318000D01*
X217250D01*
Y322500D01*
D02*
G37*
G36*
X207500D02*
X202750D01*
Y318000D01*
X207500D01*
Y322500D01*
D02*
G37*
G36*
X134500Y405000D02*
X127000D01*
X119500D01*
Y402250D01*
X120500D01*
Y393750D01*
X133500D01*
Y394686D01*
X154001D01*
X154075Y394575D01*
X155647Y393526D01*
X157500Y393157D01*
X157631Y393183D01*
X175627Y375186D01*
Y372738D01*
X176099Y371599D01*
X177237Y371127D01*
X179436D01*
Y360000D01*
X179689Y358732D01*
X180407Y357657D01*
X189500Y348564D01*
Y341750D01*
X191436D01*
Y331000D01*
X188750D01*
Y319000D01*
X191686D01*
Y310999D01*
X191575Y310924D01*
X190526Y309353D01*
X190157Y307500D01*
X190526Y305647D01*
X191575Y304075D01*
X193147Y303026D01*
X195000Y302657D01*
X196853Y303026D01*
X198424Y304075D01*
X199474Y305647D01*
X199843Y307500D01*
X199474Y309353D01*
X198424Y310924D01*
X198314Y310999D01*
Y319000D01*
X201250D01*
Y331000D01*
X198064D01*
Y333061D01*
X202246D01*
X202750Y332000D01*
X202750Y331791D01*
Y327500D01*
X210000D01*
X217250D01*
Y331791D01*
X217250Y332000D01*
X217754Y333061D01*
X229753D01*
X231686Y331128D01*
Y328500D01*
X228750D01*
Y316500D01*
X241250D01*
Y328500D01*
X238314D01*
Y332500D01*
X238061Y333768D01*
X237343Y334843D01*
X233468Y338718D01*
X232393Y339436D01*
X231125Y339689D01*
X198064D01*
Y341750D01*
X200000D01*
Y353250D01*
X194186D01*
X186064Y361372D01*
Y371127D01*
X188263D01*
X189401Y371599D01*
X189873Y372738D01*
Y378262D01*
X189401Y379401D01*
X188263Y379873D01*
X180314D01*
X162317Y397869D01*
X162343Y398000D01*
X161974Y399853D01*
X160925Y401424D01*
X159353Y402474D01*
X157500Y402843D01*
X155647Y402474D01*
X154075Y401424D01*
X154001Y401314D01*
X135306D01*
X134500Y402250D01*
Y405000D01*
D02*
G37*
G36*
X257250Y320000D02*
X252500D01*
Y315500D01*
X257250D01*
Y320000D01*
D02*
G37*
G36*
X247500D02*
X242750D01*
Y315500D01*
X247500D01*
Y320000D01*
D02*
G37*
G36*
X257250Y309500D02*
X252500D01*
Y305000D01*
X257250D01*
Y309500D01*
D02*
G37*
G36*
X247500D02*
X242750D01*
Y305000D01*
X247500D01*
Y309500D01*
D02*
G37*
G36*
X67263Y449873D02*
X61737D01*
X60599Y449401D01*
X60127Y448262D01*
Y437238D01*
X60599Y436099D01*
X61186Y435856D01*
Y426000D01*
X56250D01*
Y414000D01*
X59186D01*
Y335000D01*
X59439Y333732D01*
X60157Y332657D01*
X91686Y301127D01*
Y227500D01*
X91939Y226232D01*
X92657Y225157D01*
X145157Y172657D01*
X146232Y171939D01*
X147500Y171686D01*
X264864D01*
X266132Y171939D01*
X267207Y172657D01*
X269843Y175293D01*
X270561Y176368D01*
X270814Y177636D01*
Y200000D01*
X270561Y201268D01*
X269843Y202343D01*
X264843Y207343D01*
X263768Y208061D01*
X262500Y208314D01*
X201918D01*
X201278Y209584D01*
X201551Y209951D01*
X220750D01*
X221726Y210145D01*
X222552Y210698D01*
X248605Y236750D01*
X255500D01*
Y244645D01*
X261802Y250948D01*
X262355Y251775D01*
X262549Y252750D01*
Y272250D01*
X262355Y273225D01*
X261802Y274052D01*
X255500Y280355D01*
Y288250D01*
X245000D01*
Y276750D01*
X251895D01*
X257413Y271232D01*
X257373Y269957D01*
X256500Y269250D01*
X256181Y269250D01*
X252750D01*
Y262500D01*
Y255750D01*
X256181D01*
X256500Y255750D01*
X257373Y255043D01*
X257413Y253768D01*
X251895Y248250D01*
X245000D01*
Y240355D01*
X241182Y236536D01*
X241127Y236564D01*
X241127Y236564D01*
X240000Y237151D01*
X240000Y237854D01*
Y248250D01*
X237299D01*
Y256750D01*
X240000D01*
Y268250D01*
X229500D01*
Y256750D01*
X232201D01*
Y248250D01*
X229500D01*
Y245049D01*
X223108D01*
X222884Y245384D01*
X221561Y246268D01*
X220000Y246578D01*
X218439Y246268D01*
X217116Y245384D01*
X216232Y244061D01*
X215922Y242500D01*
X216232Y240939D01*
X217116Y239616D01*
X218439Y238732D01*
X220000Y238422D01*
X221561Y238732D01*
X222884Y239616D01*
X223108Y239951D01*
X229500D01*
Y236750D01*
X238804D01*
X239599Y236750D01*
X240214Y235569D01*
X219694Y215049D01*
X200608D01*
X200384Y215384D01*
X199061Y216268D01*
X197500Y216578D01*
X195939Y216268D01*
X194616Y215384D01*
X193732Y214061D01*
X193422Y212500D01*
X193732Y210939D01*
X194616Y209616D01*
X194665Y209584D01*
X194280Y208314D01*
X184796D01*
X184270Y209584D01*
X204843Y230157D01*
X205561Y231232D01*
X205814Y232500D01*
Y266780D01*
X207084Y267165D01*
X207116Y267116D01*
X208439Y266232D01*
X210000Y265922D01*
X211561Y266232D01*
X212884Y267116D01*
X213768Y268439D01*
X214078Y270000D01*
X214000Y270395D01*
X223556Y279951D01*
X229500D01*
Y276750D01*
X240000D01*
Y288250D01*
X229500D01*
Y285049D01*
X222500D01*
X221525Y284855D01*
X220698Y284302D01*
X210395Y274000D01*
X210000Y274078D01*
X208439Y273768D01*
X207717Y273285D01*
X206319Y273803D01*
X206268Y274061D01*
X205814Y274741D01*
Y278627D01*
X226373Y299186D01*
X228750D01*
Y296500D01*
X241250D01*
Y308500D01*
X228750D01*
Y305814D01*
X225000D01*
X223732Y305561D01*
X222657Y304843D01*
X200157Y282343D01*
X199439Y281268D01*
X199186Y280000D01*
Y274741D01*
X198732Y274061D01*
X198422Y272500D01*
X198732Y270939D01*
X199186Y270259D01*
Y233873D01*
X176407Y211093D01*
X175689Y210018D01*
X175436Y208750D01*
X175689Y207482D01*
X176407Y206407D01*
X180157Y202657D01*
X181232Y201939D01*
X182500Y201686D01*
X261127D01*
X264186Y198627D01*
Y179009D01*
X263491Y178314D01*
X148872D01*
X98314Y228873D01*
Y302500D01*
X98061Y303768D01*
X97343Y304843D01*
X65814Y336373D01*
Y414000D01*
X68750D01*
Y426000D01*
X67814D01*
Y435856D01*
X68401Y436099D01*
X68873Y437238D01*
Y448262D01*
X68401Y449401D01*
X67263Y449873D01*
D02*
G37*
G36*
X257250Y300000D02*
X252500D01*
Y295500D01*
X257250D01*
Y300000D01*
D02*
G37*
G36*
X247500D02*
X242750D01*
Y295500D01*
X247500D01*
Y300000D01*
D02*
G37*
G36*
X247750Y269250D02*
X244000D01*
Y265000D01*
X247750D01*
Y269250D01*
D02*
G37*
G36*
Y260000D02*
X244000D01*
Y255750D01*
X247750D01*
Y260000D01*
D02*
G37*
G36*
X300000Y286339D02*
X295528Y285987D01*
X291166Y284940D01*
X287021Y283223D01*
X283196Y280879D01*
X279785Y277966D01*
X276872Y274555D01*
X274528Y270730D01*
X272811Y266585D01*
X271764Y262223D01*
X271412Y257751D01*
X271764Y253279D01*
X272811Y248917D01*
X274528Y244772D01*
X276872Y240947D01*
X279785Y237536D01*
X283196Y234623D01*
X287021Y232279D01*
X291166Y230562D01*
X295528Y229515D01*
X300000Y229163D01*
X304472Y229515D01*
X308834Y230562D01*
X312979Y232279D01*
X316804Y234623D01*
X320215Y237536D01*
X323128Y240947D01*
X325472Y244772D01*
X327189Y248917D01*
X328236Y253279D01*
X328588Y257751D01*
X328236Y262223D01*
X327189Y266585D01*
X325472Y270730D01*
X323128Y274555D01*
X320215Y277966D01*
X316804Y280879D01*
X312979Y283223D01*
X308834Y284940D01*
X304472Y285987D01*
X300000Y286339D01*
D02*
G37*
G36*
X35000Y286088D02*
X30528Y285736D01*
X26166Y284689D01*
X22021Y282972D01*
X18196Y280628D01*
X14785Y277715D01*
X11872Y274304D01*
X9528Y270479D01*
X7811Y266334D01*
X6764Y261972D01*
X6412Y257500D01*
X6764Y253028D01*
X7811Y248666D01*
X9528Y244521D01*
X11872Y240696D01*
X14785Y237285D01*
X18196Y234372D01*
X22021Y232028D01*
X26166Y230311D01*
X30528Y229264D01*
X35000Y228912D01*
X39472Y229264D01*
X43834Y230311D01*
X47979Y232028D01*
X51804Y234372D01*
X55215Y237285D01*
X58128Y240696D01*
X60472Y244521D01*
X62189Y248666D01*
X63236Y253028D01*
X63588Y257500D01*
X63236Y261972D01*
X62189Y266334D01*
X60472Y270479D01*
X58128Y274304D01*
X55215Y277715D01*
X51804Y280628D01*
X47979Y282972D01*
X43834Y284689D01*
X39472Y285736D01*
X35000Y286088D01*
D02*
G37*
G36*
X178000Y245750D02*
X167500D01*
Y234250D01*
X170201D01*
Y223806D01*
X163198Y216802D01*
X162645Y215975D01*
X162451Y215000D01*
Y198108D01*
X162116Y197884D01*
X161232Y196561D01*
X160922Y195000D01*
X161232Y193439D01*
X162116Y192116D01*
X163439Y191232D01*
X164578Y191006D01*
X164951Y190632D01*
Y190000D01*
X165145Y189025D01*
X165698Y188198D01*
X168198Y185698D01*
X169025Y185145D01*
X170000Y184951D01*
X214392D01*
X214616Y184616D01*
X215939Y183732D01*
X217500Y183422D01*
X219061Y183732D01*
X220384Y184616D01*
X221268Y185939D01*
X221578Y187500D01*
X221268Y189061D01*
X220384Y190384D01*
X220201Y190506D01*
X219911Y192227D01*
X220081Y192451D01*
X239392D01*
X239616Y192116D01*
X240939Y191232D01*
X242500Y190922D01*
X244061Y191232D01*
X245384Y192116D01*
X246268Y193439D01*
X246578Y195000D01*
X246268Y196561D01*
X245384Y197884D01*
X244061Y198768D01*
X242500Y199078D01*
X240939Y198768D01*
X239616Y197884D01*
X239392Y197549D01*
X180608D01*
X180384Y197884D01*
X179061Y198768D01*
X177500Y199078D01*
X175939Y198768D01*
X174616Y197884D01*
X173732Y196561D01*
X173422Y195000D01*
X173732Y193439D01*
X174616Y192116D01*
X174799Y191994D01*
X175089Y190273D01*
X174919Y190049D01*
X171056D01*
X170049Y191056D01*
Y191688D01*
X169855Y192664D01*
X169303Y193491D01*
X168865Y193928D01*
X169078Y195000D01*
X168768Y196561D01*
X167884Y197884D01*
X167549Y198108D01*
Y213944D01*
X174552Y220948D01*
X175105Y221775D01*
X175299Y222750D01*
Y234250D01*
X178000D01*
Y245750D01*
D02*
G37*
G36*
X300000Y68839D02*
X295528Y68487D01*
X291166Y67440D01*
X287021Y65723D01*
X283196Y63380D01*
X279785Y60466D01*
X276872Y57055D01*
X274528Y53230D01*
X272811Y49085D01*
X271764Y44723D01*
X271412Y40251D01*
X271764Y35779D01*
X272811Y31417D01*
X274528Y27273D01*
X276872Y23448D01*
X279785Y20036D01*
X283196Y17123D01*
X287021Y14779D01*
X291166Y13062D01*
X295528Y12015D01*
X300000Y11663D01*
X304472Y12015D01*
X308834Y13062D01*
X312979Y14779D01*
X316804Y17123D01*
X320215Y20036D01*
X323128Y23448D01*
X325472Y27273D01*
X327189Y31417D01*
X328236Y35779D01*
X328588Y40251D01*
X328236Y44723D01*
X327189Y49085D01*
X325472Y53230D01*
X323128Y57055D01*
X320215Y60466D01*
X316804Y63380D01*
X312979Y65723D01*
X308834Y67440D01*
X304472Y68487D01*
X300000Y68839D01*
D02*
G37*
G36*
X35000Y66339D02*
X30528Y65987D01*
X26166Y64940D01*
X22021Y63223D01*
X18196Y60880D01*
X14785Y57966D01*
X11872Y54555D01*
X9528Y50730D01*
X7811Y46585D01*
X6764Y42223D01*
X6412Y37751D01*
X6764Y33279D01*
X7811Y28917D01*
X9528Y24773D01*
X11872Y20948D01*
X14785Y17536D01*
X18196Y14623D01*
X22021Y12279D01*
X26166Y10562D01*
X30528Y9515D01*
X35000Y9163D01*
X39472Y9515D01*
X43834Y10562D01*
X47979Y12279D01*
X51804Y14623D01*
X55215Y17536D01*
X58128Y20948D01*
X60472Y24773D01*
X62189Y28917D01*
X63236Y33279D01*
X63588Y37751D01*
X63236Y42223D01*
X62189Y46585D01*
X60472Y50730D01*
X58128Y54555D01*
X55215Y57966D01*
X51804Y60880D01*
X47979Y63223D01*
X43834Y64940D01*
X39472Y65987D01*
X35000Y66339D01*
D02*
G37*
%LPD*%
G36*
X92451Y527419D02*
Y525273D01*
X92645Y524298D01*
X93198Y523471D01*
X117451Y499218D01*
Y451056D01*
X88198Y421802D01*
X87645Y420975D01*
X87451Y420000D01*
Y417500D01*
Y380000D01*
X87645Y379025D01*
X88198Y378198D01*
X139951Y326444D01*
Y282549D01*
X135500D01*
Y285750D01*
X125000D01*
Y274250D01*
X135500D01*
Y277451D01*
X139951D01*
Y260608D01*
X139616Y260384D01*
X138732Y259061D01*
X138565Y258218D01*
X138520Y257994D01*
X137250Y258120D01*
Y267000D01*
X132500D01*
Y260000D01*
Y253000D01*
X137250D01*
Y256880D01*
X138520Y257006D01*
X138565Y256782D01*
X138732Y255939D01*
X139616Y254616D01*
X140939Y253732D01*
X142500Y253422D01*
X144061Y253732D01*
X145384Y254616D01*
X145506Y254799D01*
X147227Y255089D01*
X147451Y254919D01*
Y248556D01*
X143533Y244638D01*
X142500Y244843D01*
X140647Y244474D01*
X139075Y243425D01*
X138490Y242549D01*
X135500D01*
Y245750D01*
X125000D01*
Y234250D01*
X135500D01*
Y237451D01*
X138490D01*
X139075Y236575D01*
X140647Y235526D01*
X142500Y235157D01*
X144353Y235526D01*
X145925Y236575D01*
X146974Y238147D01*
X147343Y240000D01*
X147138Y241033D01*
X150730Y244625D01*
X152000Y244099D01*
Y234250D01*
X154701D01*
Y220806D01*
X144020Y210125D01*
X143625Y210203D01*
X142064Y209893D01*
X141766Y209694D01*
X132853D01*
X118319Y224228D01*
Y234250D01*
X120000D01*
Y245750D01*
X118319D01*
Y254000D01*
X121250D01*
Y266000D01*
X118319D01*
Y274250D01*
X120000D01*
Y285750D01*
X118319D01*
Y294000D01*
X121250D01*
Y306000D01*
X118569D01*
Y314000D01*
X121250D01*
Y326000D01*
X114047D01*
X83569Y356478D01*
Y428522D01*
X95023Y439977D01*
X95797Y441134D01*
X96069Y442500D01*
Y451500D01*
X98750D01*
Y463500D01*
X96069D01*
Y471500D01*
X98750D01*
Y483500D01*
X96069D01*
Y488931D01*
X108141D01*
X108439Y488732D01*
X110000Y488422D01*
X111561Y488732D01*
X112884Y489616D01*
X113768Y490939D01*
X114078Y492500D01*
X113768Y494061D01*
X112884Y495384D01*
X111561Y496268D01*
X110000Y496578D01*
X108439Y496268D01*
X108141Y496069D01*
X94794D01*
Y505000D01*
X94619Y505878D01*
X94122Y506622D01*
X89794Y510950D01*
Y526722D01*
X90384Y527116D01*
X90506Y527299D01*
X92227Y527589D01*
X92451Y527419D01*
D02*
G37*
%LPC*%
G36*
X114750Y484500D02*
X110000D01*
Y480000D01*
X114750D01*
Y484500D01*
D02*
G37*
G36*
X105000D02*
X100250D01*
Y480000D01*
X105000D01*
Y484500D01*
D02*
G37*
G36*
X114750Y475000D02*
X110000D01*
Y470500D01*
X114750D01*
Y475000D01*
D02*
G37*
G36*
X105000D02*
X100250D01*
Y470500D01*
X105000D01*
Y475000D01*
D02*
G37*
G36*
X114750Y464500D02*
X110000D01*
Y460000D01*
X114750D01*
Y464500D01*
D02*
G37*
G36*
X105000D02*
X100250D01*
Y460000D01*
X105000D01*
Y464500D01*
D02*
G37*
G36*
X114750Y455000D02*
X110000D01*
Y450500D01*
X114750D01*
Y455000D01*
D02*
G37*
G36*
X105000D02*
X100250D01*
Y450500D01*
X105000D01*
Y455000D01*
D02*
G37*
G36*
X137250Y327000D02*
X132500D01*
Y322500D01*
X137250D01*
Y327000D01*
D02*
G37*
G36*
X127500D02*
X122750D01*
Y322500D01*
X127500D01*
Y327000D01*
D02*
G37*
G36*
X137250Y317500D02*
X132500D01*
Y313000D01*
X137250D01*
Y317500D01*
D02*
G37*
G36*
X127500D02*
X122750D01*
Y313000D01*
X127500D01*
Y317500D01*
D02*
G37*
G36*
X137250Y307000D02*
X132500D01*
Y302500D01*
X137250D01*
Y307000D01*
D02*
G37*
G36*
X127500D02*
X122750D01*
Y302500D01*
X127500D01*
Y307000D01*
D02*
G37*
G36*
X137250Y297500D02*
X132500D01*
Y293000D01*
X137250D01*
Y297500D01*
D02*
G37*
G36*
X127500D02*
X122750D01*
Y293000D01*
X127500D01*
Y297500D01*
D02*
G37*
G36*
Y267000D02*
X122750D01*
Y262500D01*
X127500D01*
Y267000D01*
D02*
G37*
G36*
Y257500D02*
X122750D01*
Y253000D01*
X127500D01*
Y257500D01*
D02*
G37*
%LPD*%
D10*
X92500Y492500D02*
Y505000D01*
X87500Y510000D02*
Y530000D01*
Y510000D02*
X92500Y505000D01*
D12*
X42600Y605000D02*
X165000D01*
X170000Y580400D02*
Y600000D01*
X165000Y605000D02*
X170000Y600000D01*
X30500Y592900D02*
X42600Y605000D01*
X170000Y580400D02*
X182700Y567700D01*
X182500Y495000D02*
X182700Y495200D01*
D15*
X75000Y495000D02*
Y497500D01*
D16*
X64500Y442750D02*
D03*
X45500D02*
D03*
Y472250D02*
D03*
X55000D02*
D03*
X64500D02*
D03*
Y500250D02*
D03*
X45500D02*
D03*
Y529750D02*
D03*
X55000D02*
D03*
X64500D02*
D03*
D17*
X127000Y398000D02*
D03*
Y407500D02*
D03*
Y417000D02*
D03*
X103000D02*
D03*
Y398000D02*
D03*
D18*
X182750Y375500D02*
D03*
Y394500D02*
D03*
X212250D02*
D03*
Y385000D02*
D03*
Y375500D02*
D03*
D19*
X314999Y535251D02*
D03*
Y519751D02*
D03*
X295000Y535250D02*
D03*
Y519750D02*
D03*
X275000Y535250D02*
D03*
Y519750D02*
D03*
X255000Y535250D02*
D03*
Y519750D02*
D03*
D20*
X234750Y262500D02*
D03*
X250250D02*
D03*
X157250Y240000D02*
D03*
X172750D02*
D03*
X250250Y242500D02*
D03*
X234750D02*
D03*
X130250Y240000D02*
D03*
X114750D02*
D03*
X130250Y280000D02*
D03*
X114750D02*
D03*
X234750Y282500D02*
D03*
X250250D02*
D03*
X169750Y440000D02*
D03*
X185250D02*
D03*
X200250Y420000D02*
D03*
X184750D02*
D03*
X210250Y347500D02*
D03*
X194750D02*
D03*
D21*
X315000Y495000D02*
D03*
Y480000D02*
D03*
X295001Y494999D02*
D03*
Y479999D02*
D03*
X275001Y494999D02*
D03*
Y479999D02*
D03*
X255001Y494999D02*
D03*
Y479999D02*
D03*
D22*
X130000Y260000D02*
D03*
X115000D02*
D03*
X130000Y300000D02*
D03*
X115000D02*
D03*
X130000Y320000D02*
D03*
X115000D02*
D03*
X47500Y420000D02*
D03*
X62500D02*
D03*
X107500Y457500D02*
D03*
X92500D02*
D03*
X235000Y322500D02*
D03*
X250000D02*
D03*
X250000Y302500D02*
D03*
X235000D02*
D03*
X210000Y325000D02*
D03*
X195000D02*
D03*
X107500Y477500D02*
D03*
X92500D02*
D03*
D23*
X15000Y510000D02*
D03*
Y525000D02*
D03*
D39*
X64500Y486250D02*
Y500250D01*
X80000Y355000D02*
Y430000D01*
X114750Y320000D02*
X115000D01*
X112250Y322500D02*
X114750Y320000D01*
X112250Y322500D02*
Y322750D01*
X80000Y355000D02*
X112250Y322750D01*
X92500Y492500D02*
X110000D01*
X85000D02*
X92500D01*
Y477500D02*
Y492500D01*
X64500Y472250D02*
Y486250D01*
X78750D02*
X85000Y492500D01*
X64500Y486250D02*
X78750D01*
X92500Y442500D02*
Y457500D01*
X80000Y430000D02*
X92500Y442500D01*
X131375Y206125D02*
X143625D01*
X114750Y222750D02*
X131375Y206125D01*
X114750Y222750D02*
Y240000D01*
Y259750D01*
X182700Y495200D02*
Y567700D01*
X92500Y457500D02*
Y477500D01*
X114750Y260250D02*
Y280000D01*
Y299750D01*
X115000Y300000D02*
Y320000D01*
D40*
X165000Y195000D02*
Y215000D01*
Y194188D02*
Y195000D01*
X172750Y222750D02*
Y240000D01*
X165000Y215000D02*
X172750Y222750D01*
X167500Y190000D02*
X170000Y187500D01*
X167500Y190000D02*
Y191688D01*
X165000Y194188D02*
X167500Y191688D01*
X30300Y530000D02*
Y564800D01*
Y490200D02*
Y530000D01*
X30550Y529750D02*
X45500D01*
X30300Y530000D02*
X30550Y529750D01*
X30300Y490200D02*
X45500Y475000D01*
X150000Y247500D02*
Y342500D01*
X115000Y377500D02*
Y397500D01*
Y377500D02*
X150000Y342500D01*
X233700Y567500D02*
X233700D01*
X255000Y537750D02*
Y546200D01*
X233700Y567500D02*
X255000Y546200D01*
X309900Y564092D02*
X314999Y558993D01*
X309900Y564092D02*
Y567500D01*
X314999Y535251D02*
Y558993D01*
X81300Y592900D02*
X95000Y579200D01*
Y525273D02*
X120000Y500273D01*
X95000Y525273D02*
Y579200D01*
X30500Y592900D02*
X42500Y580900D01*
Y562500D02*
X64500Y540500D01*
X42500Y562500D02*
Y580900D01*
X64500Y529750D02*
Y540500D01*
X15000Y525000D02*
Y577400D01*
X30500Y592900D01*
X177500Y195000D02*
X242500D01*
X170000Y187500D02*
X217500D01*
X142500Y280000D02*
Y327500D01*
Y257500D02*
Y280000D01*
X130250D02*
X142500D01*
Y240000D02*
X150000Y247500D01*
X130250Y240000D02*
X142500D01*
X115000Y397500D02*
Y427500D01*
X103000Y398000D02*
X114500D01*
X115000Y397500D01*
Y427500D02*
X132100Y444600D01*
Y567500D01*
X90000Y417500D02*
Y420000D01*
Y380000D02*
Y417500D01*
X90500Y417000D02*
X103000D01*
X90000Y417500D02*
X90500Y417000D01*
X120000Y450000D02*
Y500273D01*
X90000Y420000D02*
X120000Y450000D01*
X197300Y470200D02*
Y530000D01*
X227500Y375000D02*
Y440000D01*
X197300Y470200D02*
X227500Y440000D01*
X143625Y206125D02*
X157250Y219750D01*
X210000Y270000D02*
X210000D01*
X222500Y282500D02*
X234750D01*
X210000Y270000D02*
X222500Y282500D01*
X220000Y242500D02*
X234750D01*
X234750Y242500D01*
X295000Y535250D02*
Y555000D01*
X284500Y565500D02*
X295000Y555000D01*
X314999Y535251D02*
X314999Y535251D01*
X255000Y537750D02*
X257500Y535250D01*
X284500Y565500D02*
Y567500D01*
X259100D02*
X274194Y552406D01*
Y536056D02*
X275000Y535250D01*
X274194Y536056D02*
Y552406D01*
X250250Y242500D02*
Y243000D01*
Y242000D02*
Y242500D01*
Y243000D02*
X260000Y252750D01*
X250250Y282000D02*
Y282500D01*
Y282000D02*
X260000Y272250D01*
Y252750D02*
Y272250D01*
X197500Y212500D02*
X220750D01*
X250250Y242000D01*
X157250Y219750D02*
Y240000D01*
X114750Y259750D02*
X115000Y260000D01*
X114750Y260250D02*
X115000Y260000D01*
X114750Y299750D02*
X115000Y300000D01*
X90000Y380000D02*
X142500Y327500D01*
X317500Y519750D02*
X317501Y519749D01*
X315000Y495000D02*
Y519750D01*
X297500D02*
X297501Y519749D01*
X295001Y494999D02*
Y519749D01*
X275001Y497499D02*
X277501Y494999D01*
X275000Y497500D02*
X275001Y497499D01*
Y519749D01*
Y494999D02*
Y497499D01*
X275000Y519750D02*
X275001Y519749D01*
X257500Y519750D02*
X257501Y519749D01*
X255001Y494999D02*
Y519749D01*
X227500Y355000D02*
Y375000D01*
X212250Y375500D02*
X227000D01*
X227500Y375000D01*
X210250Y347500D02*
X220000D01*
X227500Y355000D01*
X184750Y396250D02*
Y419750D01*
X127000Y417000D02*
X182000D01*
X184750Y419750D01*
Y420000D01*
X183000Y394500D02*
X184750Y396250D01*
X182750Y394500D02*
X183000D01*
X200250Y420000D02*
Y420500D01*
X188000Y432750D02*
X200250Y420500D01*
X188000Y432750D02*
Y437250D01*
X185250Y440000D02*
X188000Y437250D01*
X212250Y394500D02*
Y407500D01*
X200250Y419500D02*
X212250Y407500D01*
X200250Y419500D02*
Y420000D01*
X45500Y472250D02*
Y475000D01*
Y527487D02*
Y529750D01*
X43750Y525737D02*
X45500Y527487D01*
X234750Y242500D02*
Y262500D01*
D41*
X182500Y205000D02*
X262500D01*
X178750Y208750D02*
X182500Y205000D01*
X147500Y175000D02*
X264864D01*
X267500Y177636D01*
Y200000D01*
X262500Y205000D02*
X267500Y200000D01*
X64500Y422000D02*
Y442750D01*
X62500Y420000D02*
X64500Y422000D01*
X62500Y335000D02*
Y420000D01*
X95000Y227500D02*
Y302500D01*
X62500Y335000D02*
X95000Y302500D01*
Y227500D02*
X147500Y175000D01*
X194750Y336375D02*
Y347500D01*
Y325250D02*
Y336375D01*
X231125D02*
X235000Y332500D01*
X194750Y336375D02*
X231125D01*
X235000Y322500D02*
Y332500D01*
X194750Y325250D02*
X195000Y325000D01*
Y307500D02*
Y325000D01*
X202500Y272500D02*
X202500Y272500D01*
Y280000D01*
X202500Y232500D02*
Y272500D01*
X178750Y208750D02*
X202500Y232500D01*
X202500Y280000D02*
X225000Y302500D01*
X235000D01*
X235000Y302500D01*
X182750Y360000D02*
Y375500D01*
Y360000D02*
X194750Y348000D01*
Y347500D02*
Y348000D01*
X127000Y398000D02*
X157500D01*
X180000Y375500D01*
X182750D01*
D42*
X309900Y592900D02*
D03*
X284500D02*
D03*
X309900Y567500D02*
D03*
X284500D02*
D03*
X233700Y592900D02*
D03*
Y567500D02*
D03*
X182900Y592900D02*
D03*
Y567500D02*
D03*
X106700Y592900D02*
D03*
Y567500D02*
D03*
X81300Y592900D02*
D03*
Y567500D02*
D03*
X30500Y592900D02*
D03*
X55900Y567500D02*
D03*
Y592900D02*
D03*
X132100Y567500D02*
D03*
Y592900D02*
D03*
X157500Y567500D02*
D03*
Y592900D02*
D03*
X208300Y567500D02*
D03*
Y592900D02*
D03*
X259100Y567500D02*
D03*
Y592900D02*
D03*
D43*
X30500Y567500D02*
D03*
D44*
X222700Y530000D02*
D03*
D45*
X197300D02*
D03*
D46*
X35000Y37751D02*
D03*
X300000Y40251D02*
D03*
Y257751D02*
D03*
X35000Y257500D02*
D03*
D47*
X75000Y495000D02*
D03*
X77500Y525000D02*
D03*
X165000Y195000D02*
D03*
X87500Y530000D02*
D03*
X242500Y195000D02*
D03*
X220000Y242500D02*
D03*
X217500Y187500D02*
D03*
X177500Y195000D02*
D03*
X142500Y257500D02*
D03*
X202500Y272500D02*
D03*
X210000Y270000D02*
D03*
X110000Y492500D02*
D03*
X143625Y206125D02*
D03*
X197500Y212500D02*
D03*
D48*
X330000Y580000D02*
D03*
Y520000D02*
D03*
Y460000D02*
D03*
X315000Y430000D02*
D03*
X330000Y400000D02*
D03*
X315000Y370000D02*
D03*
X330000Y340000D02*
D03*
X315000Y310000D02*
D03*
X330000Y280000D02*
D03*
Y220000D02*
D03*
X315000Y190000D02*
D03*
X330000Y160000D02*
D03*
X315000Y130000D02*
D03*
X330000Y100000D02*
D03*
X315000Y70000D02*
D03*
Y10000D02*
D03*
X285000Y550000D02*
D03*
Y490000D02*
D03*
X300000Y460000D02*
D03*
X285000Y430000D02*
D03*
X300000Y400000D02*
D03*
X285000Y370000D02*
D03*
X300000Y340000D02*
D03*
X285000Y310000D02*
D03*
X300000Y220000D02*
D03*
X285000Y190000D02*
D03*
X300000Y160000D02*
D03*
X285000Y130000D02*
D03*
X300000Y100000D02*
D03*
X285000Y70000D02*
D03*
Y10000D02*
D03*
X270000Y460000D02*
D03*
Y400000D02*
D03*
Y340000D02*
D03*
Y280000D02*
D03*
Y220000D02*
D03*
X255000Y190000D02*
D03*
X270000Y160000D02*
D03*
X255000Y130000D02*
D03*
X270000Y100000D02*
D03*
X255000Y70000D02*
D03*
Y10000D02*
D03*
X240000Y160000D02*
D03*
X225000Y130000D02*
D03*
X240000Y100000D02*
D03*
X225000Y70000D02*
D03*
X240000Y40000D02*
D03*
X225000Y10000D02*
D03*
X195000Y370000D02*
D03*
X210000Y220000D02*
D03*
Y160000D02*
D03*
X195000Y130000D02*
D03*
X210000Y100000D02*
D03*
X195000Y70000D02*
D03*
X210000Y40000D02*
D03*
X195000Y10000D02*
D03*
X165000Y550000D02*
D03*
Y490000D02*
D03*
X180000Y460000D02*
D03*
X165000Y370000D02*
D03*
X180000Y340000D02*
D03*
X165000Y310000D02*
D03*
X180000Y160000D02*
D03*
X165000Y130000D02*
D03*
X180000Y100000D02*
D03*
X165000Y70000D02*
D03*
X180000Y40000D02*
D03*
X165000Y10000D02*
D03*
X150000Y580000D02*
D03*
Y460000D02*
D03*
X135000Y430000D02*
D03*
Y370000D02*
D03*
X150000Y160000D02*
D03*
X135000Y130000D02*
D03*
X150000Y100000D02*
D03*
X135000Y70000D02*
D03*
X150000Y40000D02*
D03*
X135000Y10000D02*
D03*
X120000Y580000D02*
D03*
Y340000D02*
D03*
X105000Y310000D02*
D03*
Y250000D02*
D03*
Y190000D02*
D03*
X120000Y160000D02*
D03*
X105000Y130000D02*
D03*
X120000Y100000D02*
D03*
X105000Y70000D02*
D03*
X120000Y40000D02*
D03*
X105000Y10000D02*
D03*
X75000Y310000D02*
D03*
Y250000D02*
D03*
X90000Y220000D02*
D03*
X75000Y190000D02*
D03*
X90000Y160000D02*
D03*
X75000Y130000D02*
D03*
X90000Y100000D02*
D03*
X75000Y70000D02*
D03*
X90000Y40000D02*
D03*
X75000Y10000D02*
D03*
X60000Y460000D02*
D03*
X45000Y370000D02*
D03*
Y310000D02*
D03*
X60000Y280000D02*
D03*
Y220000D02*
D03*
X45000Y190000D02*
D03*
X60000Y160000D02*
D03*
X45000Y130000D02*
D03*
X60000Y100000D02*
D03*
X45000Y70000D02*
D03*
X30000Y460000D02*
D03*
X15000Y430000D02*
D03*
X30000Y400000D02*
D03*
X15000Y370000D02*
D03*
X30000Y340000D02*
D03*
X15000Y310000D02*
D03*
X30000Y220000D02*
D03*
X15000Y190000D02*
D03*
X30000Y160000D02*
D03*
X15000Y130000D02*
D03*
X30000Y100000D02*
D03*
X15000Y70000D02*
D03*
Y10000D02*
D03*
X85000Y492500D02*
D03*
X142500Y240000D02*
D03*
X182500Y495000D02*
D03*
X157500Y398000D02*
D03*
X195000Y307500D02*
D03*
M02*
