G04*
G04 #@! TF.GenerationSoftware,Altium Limited,Altium Designer,20.2.6 (244)*
G04*
G04 Layer_Physical_Order=2*
G04 Layer_Color=16711680*
%FSLAX44Y44*%
%MOMM*%
G71*
G04*
G04 #@! TF.SameCoordinates,1C3B4399-50F2-4F1D-8FF7-95CD84B7109A*
G04*
G04*
G04 #@! TF.FilePolarity,Positive*
G04*
G01*
G75*
%ADD10C,0.2500*%
%ADD15C,0.1500*%
%ADD20R,0.8500X0.9500*%
%ADD23R,1.0000X1.0500*%
%ADD39C,0.5000*%
%ADD40C,0.3000*%
%ADD42C,1.6500*%
%ADD43R,1.6500X1.6500*%
%ADD44R,1.6000X1.6000*%
%ADD45C,1.6000*%
%ADD46C,5.5000*%
%ADD47C,0.6000*%
%ADD48C,0.7500*%
%ADD49R,0.2800X0.4100*%
%ADD50R,0.4100X0.2800*%
%ADD51R,0.3500X0.5750*%
%ADD52R,0.7500X0.3500*%
G36*
X337500Y0D02*
X0D01*
Y610000D01*
X337500D01*
Y0D01*
D02*
G37*
%LPC*%
G36*
X312400Y602909D02*
Y595400D01*
X319909D01*
X319886Y595576D01*
X318853Y598069D01*
X317210Y600210D01*
X315069Y601853D01*
X312576Y602886D01*
X312400Y602909D01*
D02*
G37*
G36*
X307400D02*
X307224Y602886D01*
X304731Y601853D01*
X302590Y600210D01*
X300947Y598069D01*
X299914Y595576D01*
X299891Y595400D01*
X307400D01*
Y602909D01*
D02*
G37*
G36*
X160000D02*
Y595400D01*
X167509D01*
X167486Y595576D01*
X166453Y598069D01*
X164810Y600210D01*
X162669Y601853D01*
X160176Y602886D01*
X160000Y602909D01*
D02*
G37*
G36*
X155000D02*
X154824Y602886D01*
X152331Y601853D01*
X150190Y600210D01*
X148547Y598069D01*
X147514Y595576D01*
X147491Y595400D01*
X155000D01*
Y602909D01*
D02*
G37*
G36*
X120000Y607549D02*
X22500D01*
X21525Y607355D01*
X20698Y606802D01*
X13198Y599302D01*
X12645Y598475D01*
X12451Y597500D01*
Y492500D01*
X12645Y491525D01*
X13198Y490698D01*
X33198Y470698D01*
X34025Y470145D01*
X35000Y469951D01*
X90000D01*
X90976Y470145D01*
X91802Y470698D01*
X101802Y480698D01*
X102355Y481525D01*
X102549Y482500D01*
X102355Y483475D01*
X102294Y483567D01*
Y503800D01*
X102400D01*
Y509900D01*
X103587Y510100D01*
X103700D01*
Y510206D01*
X114500D01*
Y504250D01*
X124099D01*
X124625Y502980D01*
X116694Y495049D01*
X113108D01*
X112884Y495384D01*
X111561Y496268D01*
X110000Y496578D01*
X108439Y496268D01*
X107116Y495384D01*
X106232Y494061D01*
X105922Y492500D01*
X106232Y490939D01*
X107116Y489616D01*
X108439Y488732D01*
X110000Y488422D01*
X111561Y488732D01*
X112884Y489616D01*
X113108Y489951D01*
X117750D01*
X118726Y490145D01*
X119552Y490698D01*
X133105Y504250D01*
X140500D01*
Y512145D01*
X142056Y513701D01*
X149000D01*
X149246Y513750D01*
X158500D01*
Y517451D01*
X166500D01*
Y513750D01*
X178500D01*
Y526250D01*
X166500D01*
Y522549D01*
X158500D01*
Y526250D01*
X146500D01*
Y518799D01*
X141000D01*
X140025Y518605D01*
X139198Y518052D01*
X136895Y515750D01*
X130000D01*
Y508355D01*
X126270Y504625D01*
X125000Y505151D01*
Y515750D01*
X122299D01*
Y521750D01*
X125000D01*
Y533250D01*
X116264D01*
X115778Y534423D01*
X118105Y536750D01*
X125000D01*
Y548250D01*
X122299D01*
Y554450D01*
X122105Y555425D01*
X121552Y556252D01*
X114835Y562969D01*
X115712Y565085D01*
X116030Y567500D01*
X115712Y569915D01*
X114780Y572165D01*
X113297Y574097D01*
X111365Y575580D01*
X109115Y576512D01*
X106700Y576830D01*
X104285Y576512D01*
X102035Y575580D01*
X100103Y574097D01*
X98819Y572424D01*
X97707Y572666D01*
X97549Y572753D01*
Y580144D01*
X102169Y584765D01*
X104285Y583888D01*
X106700Y583570D01*
X109115Y583888D01*
X111365Y584820D01*
X113297Y586303D01*
X114780Y588235D01*
X115712Y590485D01*
X116030Y592900D01*
X115712Y595315D01*
X114780Y597565D01*
X113297Y599497D01*
X111365Y600980D01*
X110879Y601181D01*
X111132Y602451D01*
X118944D01*
X123965Y597431D01*
X123088Y595315D01*
X122770Y592900D01*
X123088Y590485D01*
X124020Y588235D01*
X125503Y586303D01*
X127435Y584820D01*
X129685Y583888D01*
X132100Y583570D01*
X134515Y583888D01*
X136765Y584820D01*
X138697Y586303D01*
X140180Y588235D01*
X141112Y590485D01*
X141430Y592900D01*
X141112Y595315D01*
X140180Y597565D01*
X138697Y599497D01*
X136765Y600980D01*
X134515Y601912D01*
X132100Y602230D01*
X129685Y601912D01*
X127569Y601035D01*
X121802Y606802D01*
X120976Y607355D01*
X120000Y607549D01*
D02*
G37*
G36*
X319909Y590400D02*
X312400D01*
Y582891D01*
X312576Y582914D01*
X315069Y583947D01*
X317210Y585590D01*
X318853Y587731D01*
X319886Y590224D01*
X319909Y590400D01*
D02*
G37*
G36*
X307400D02*
X299891D01*
X299914Y590224D01*
X300947Y587731D01*
X302590Y585590D01*
X304731Y583947D01*
X307224Y582914D01*
X307400Y582891D01*
Y590400D01*
D02*
G37*
G36*
X167509D02*
X160000D01*
Y582891D01*
X160176Y582914D01*
X162669Y583947D01*
X164810Y585590D01*
X166453Y587731D01*
X167486Y590224D01*
X167509Y590400D01*
D02*
G37*
G36*
X155000D02*
X147491D01*
X147514Y590224D01*
X148547Y587731D01*
X150190Y585590D01*
X152331Y583947D01*
X154824Y582914D01*
X155000Y582891D01*
Y590400D01*
D02*
G37*
G36*
X160000Y577509D02*
Y570000D01*
X167509D01*
X167486Y570176D01*
X166453Y572669D01*
X164810Y574810D01*
X162669Y576453D01*
X160176Y577486D01*
X160000Y577509D01*
D02*
G37*
G36*
X155000D02*
X154824Y577486D01*
X152331Y576453D01*
X150190Y574810D01*
X148547Y572669D01*
X147514Y570176D01*
X147491Y570000D01*
X155000D01*
Y577509D01*
D02*
G37*
G36*
X284500Y602230D02*
X282085Y601912D01*
X279835Y600980D01*
X277903Y599497D01*
X276420Y597565D01*
X275488Y595315D01*
X275170Y592900D01*
X275488Y590485D01*
X276420Y588235D01*
X277903Y586303D01*
X279835Y584820D01*
X282085Y583888D01*
X284500Y583570D01*
X286915Y583888D01*
X289031Y584765D01*
X294951Y578844D01*
Y568713D01*
X293681Y568630D01*
X293512Y569915D01*
X292580Y572165D01*
X291097Y574097D01*
X289165Y575580D01*
X286915Y576512D01*
X284500Y576830D01*
X282085Y576512D01*
X279835Y575580D01*
X277903Y574097D01*
X276420Y572165D01*
X276319Y571921D01*
X275049Y572173D01*
Y577500D01*
X274855Y578475D01*
X274302Y579302D01*
X266394Y587211D01*
X267180Y588235D01*
X268112Y590485D01*
X268430Y592900D01*
X268112Y595315D01*
X267180Y597565D01*
X265697Y599497D01*
X263765Y600980D01*
X261515Y601912D01*
X259100Y602230D01*
X256685Y601912D01*
X254435Y600980D01*
X252503Y599497D01*
X251020Y597565D01*
X250088Y595315D01*
X249770Y592900D01*
X250088Y590485D01*
X251020Y588235D01*
X252503Y586303D01*
X254435Y584820D01*
X256685Y583888D01*
X259100Y583570D01*
X261515Y583888D01*
X262216Y584179D01*
X269951Y576444D01*
Y508556D01*
X238198Y476802D01*
X237645Y475975D01*
X237451Y475000D01*
Y211056D01*
X217895Y191500D01*
X217500Y191578D01*
X215939Y191268D01*
X214616Y190384D01*
X213732Y189061D01*
X213422Y187500D01*
X213732Y185939D01*
X214616Y184616D01*
X215939Y183732D01*
X217500Y183422D01*
X219061Y183732D01*
X220384Y184616D01*
X221268Y185939D01*
X221578Y187500D01*
X221500Y187895D01*
X241802Y208198D01*
X242355Y209025D01*
X242549Y210000D01*
Y473944D01*
X274302Y505698D01*
X274855Y506525D01*
X275049Y507500D01*
Y562827D01*
X276319Y563079D01*
X276420Y562835D01*
X277903Y560903D01*
X279835Y559420D01*
X282085Y558488D01*
X284500Y558170D01*
X286915Y558488D01*
X289165Y559420D01*
X291097Y560903D01*
X292580Y562835D01*
X293512Y565085D01*
X293681Y566370D01*
X294951Y566287D01*
Y518556D01*
X248198Y471802D01*
X247645Y470975D01*
X247451Y470000D01*
Y203556D01*
X242895Y199000D01*
X242500Y199078D01*
X240939Y198768D01*
X239616Y197884D01*
X238732Y196561D01*
X238422Y195000D01*
X238732Y193439D01*
X239616Y192116D01*
X240939Y191232D01*
X242500Y190922D01*
X244061Y191232D01*
X245384Y192116D01*
X246268Y193439D01*
X246578Y195000D01*
X246500Y195395D01*
X251802Y200698D01*
X252355Y201525D01*
X252549Y202500D01*
Y468944D01*
X299302Y515698D01*
X299855Y516525D01*
X300049Y517500D01*
Y563792D01*
X301319Y564045D01*
X301820Y562835D01*
X303303Y560903D01*
X305235Y559420D01*
X307485Y558488D01*
X309900Y558170D01*
X312315Y558488D01*
X314565Y559420D01*
X316497Y560903D01*
X317980Y562835D01*
X318912Y565085D01*
X319230Y567500D01*
X318912Y569915D01*
X317980Y572165D01*
X316497Y574097D01*
X314565Y575580D01*
X312315Y576512D01*
X309900Y576830D01*
X307485Y576512D01*
X305235Y575580D01*
X303303Y574097D01*
X301820Y572165D01*
X301319Y570955D01*
X300049Y571208D01*
Y579900D01*
X299855Y580876D01*
X299302Y581702D01*
X292635Y588369D01*
X293512Y590485D01*
X293830Y592900D01*
X293512Y595315D01*
X292580Y597565D01*
X291097Y599497D01*
X289165Y600980D01*
X286915Y601912D01*
X284500Y602230D01*
D02*
G37*
G36*
X233700D02*
X231285Y601912D01*
X229035Y600980D01*
X227103Y599497D01*
X225620Y597565D01*
X224688Y595315D01*
X224370Y592900D01*
X224688Y590485D01*
X225620Y588235D01*
X227103Y586303D01*
X229035Y584820D01*
X231285Y583888D01*
X233700Y583570D01*
X236115Y583888D01*
X236180Y583915D01*
X244951Y575144D01*
Y498556D01*
X228569Y482174D01*
X228016Y481347D01*
X227822Y480371D01*
Y240685D01*
X217187Y230049D01*
X212950D01*
X212424Y231319D01*
X219605Y238500D01*
X220000Y238422D01*
X221561Y238732D01*
X222884Y239616D01*
X223768Y240939D01*
X224078Y242500D01*
X223768Y244061D01*
X222884Y245384D01*
X222549Y245608D01*
Y483944D01*
X236802Y498198D01*
X237355Y499025D01*
X237549Y500000D01*
Y548097D01*
X237355Y549073D01*
X236802Y549900D01*
X228299Y558403D01*
X229035Y559420D01*
X231285Y558488D01*
X233700Y558170D01*
X236115Y558488D01*
X238365Y559420D01*
X240297Y560903D01*
X241780Y562835D01*
X242712Y565085D01*
X243030Y567500D01*
X242712Y569915D01*
X241780Y572165D01*
X240297Y574097D01*
X238365Y575580D01*
X236115Y576512D01*
X233700Y576830D01*
X231285Y576512D01*
X229035Y575580D01*
X227103Y574097D01*
X225620Y572165D01*
X224688Y569915D01*
X224370Y567500D01*
X224688Y565085D01*
X225620Y562835D01*
X224603Y562099D01*
X222428Y564274D01*
Y571124D01*
X222234Y572099D01*
X221681Y572926D01*
X213402Y581206D01*
Y585155D01*
X214897Y586303D01*
X216380Y588235D01*
X217312Y590485D01*
X217630Y592900D01*
X217312Y595315D01*
X216380Y597565D01*
X214897Y599497D01*
X212965Y600980D01*
X210715Y601912D01*
X208300Y602230D01*
X205885Y601912D01*
X203635Y600980D01*
X201703Y599497D01*
X200220Y597565D01*
X199288Y595315D01*
X198970Y592900D01*
X199288Y590485D01*
X200220Y588235D01*
X201703Y586303D01*
X203635Y584820D01*
X205885Y583888D01*
X208300Y583570D01*
X208304Y583567D01*
Y580150D01*
X208498Y579175D01*
X208557Y579086D01*
X208479Y578707D01*
X207899Y577786D01*
X205624Y577486D01*
X203131Y576453D01*
X200990Y574810D01*
X199347Y572669D01*
X198729Y571179D01*
X197409Y571309D01*
X197355Y571578D01*
X196802Y572405D01*
X188002Y581206D01*
Y585155D01*
X189497Y586303D01*
X190980Y588235D01*
X191912Y590485D01*
X192230Y592900D01*
X191912Y595315D01*
X190980Y597565D01*
X189497Y599497D01*
X187565Y600980D01*
X185315Y601912D01*
X182900Y602230D01*
X180485Y601912D01*
X178235Y600980D01*
X176303Y599497D01*
X174820Y597565D01*
X173888Y595315D01*
X173570Y592900D01*
X173888Y590485D01*
X174820Y588235D01*
X176303Y586303D01*
X178235Y584820D01*
X180485Y583888D01*
X182900Y583570D01*
X182904Y583567D01*
Y580150D01*
X183098Y579175D01*
X183650Y578348D01*
X184037Y577961D01*
X183444Y576758D01*
X182900Y576830D01*
X180485Y576512D01*
X178235Y575580D01*
X176303Y574097D01*
X174820Y572165D01*
X173888Y569915D01*
X173570Y567500D01*
X173888Y565085D01*
X174820Y562835D01*
X176303Y560903D01*
X178235Y559420D01*
X180485Y558488D01*
X182900Y558170D01*
X185315Y558488D01*
X187565Y559420D01*
X189497Y560903D01*
X190980Y562835D01*
X191181Y563321D01*
X192451Y563068D01*
Y555000D01*
X192645Y554025D01*
X193198Y553198D01*
X207951Y538444D01*
Y274553D01*
X207524Y274256D01*
X207328Y274225D01*
X205896Y274618D01*
X205384Y275384D01*
X204061Y276268D01*
X202500Y276578D01*
X200939Y276268D01*
X199616Y275384D01*
X198732Y274061D01*
X198422Y272500D01*
X198500Y272105D01*
X193944Y267549D01*
X186750D01*
Y267750D01*
X177250D01*
Y262250D01*
X186750D01*
Y262451D01*
X195000D01*
X195975Y262645D01*
X196802Y263198D01*
X202105Y268500D01*
X202500Y268422D01*
X204061Y268732D01*
X204783Y269215D01*
X206181Y268697D01*
X206232Y268439D01*
X207116Y267116D01*
X207451Y266892D01*
Y263556D01*
X195444Y251549D01*
X186750D01*
Y251750D01*
X177250D01*
Y246250D01*
X186750D01*
Y246451D01*
X196500D01*
X197475Y246645D01*
X198302Y247198D01*
X211802Y260698D01*
X212355Y261525D01*
X212549Y262500D01*
Y266892D01*
X212884Y267116D01*
X213768Y268439D01*
X214078Y270000D01*
X213768Y271561D01*
X213049Y272637D01*
Y520000D01*
X220200D01*
Y530000D01*
Y540000D01*
X212950D01*
X212855Y540476D01*
X212302Y541302D01*
X197549Y556056D01*
Y563352D01*
X198819Y563605D01*
X199347Y562331D01*
X200990Y560190D01*
X203131Y558547D01*
X205624Y557514D01*
X205800Y557491D01*
Y567500D01*
X210800D01*
Y557491D01*
X210976Y557514D01*
X213469Y558547D01*
X215610Y560190D01*
X216550Y561414D01*
X218063Y561416D01*
X218119Y561373D01*
X232451Y547041D01*
Y540000D01*
X225200D01*
Y530000D01*
Y520000D01*
X232451D01*
Y501056D01*
X218198Y486802D01*
X217645Y485975D01*
X217451Y485000D01*
Y245608D01*
X217116Y245384D01*
X216232Y244061D01*
X215922Y242500D01*
X216000Y242105D01*
X208944Y235049D01*
X170000D01*
X169025Y234855D01*
X168198Y234302D01*
X165448Y231552D01*
X164895Y230725D01*
X164701Y229750D01*
Y227218D01*
X163431Y227093D01*
X163355Y227475D01*
X162802Y228302D01*
X161812Y229293D01*
X159302Y231802D01*
X158476Y232355D01*
X157500Y232549D01*
X148556D01*
X145796Y235309D01*
X145920Y236573D01*
X145925Y236575D01*
X146974Y238147D01*
X147343Y240000D01*
X146974Y241853D01*
X145925Y243425D01*
X145920Y243427D01*
X145796Y244691D01*
X147556Y246451D01*
X153250D01*
Y246250D01*
X162750D01*
Y251750D01*
X153250D01*
Y251549D01*
X146500D01*
X145525Y251355D01*
X144698Y250802D01*
X140698Y246802D01*
X140145Y245975D01*
X139951Y245000D01*
Y244010D01*
X139075Y243425D01*
X138026Y241853D01*
X137657Y240000D01*
X138026Y238147D01*
X139075Y236575D01*
X139951Y235990D01*
Y235000D01*
X140145Y234025D01*
X140698Y233198D01*
X145698Y228198D01*
X146525Y227645D01*
X147500Y227451D01*
X156444D01*
X158451Y225444D01*
Y224735D01*
X157750Y223755D01*
X156980Y223755D01*
X152250D01*
Y222549D01*
X146056D01*
X135049Y233556D01*
Y246444D01*
X142105Y253500D01*
X142500Y253422D01*
X144061Y253732D01*
X145384Y254616D01*
X145441Y254701D01*
X153250D01*
Y254250D01*
X162750D01*
Y259750D01*
X157996D01*
X157750Y259799D01*
X145775D01*
X145384Y260384D01*
X144061Y261268D01*
X142500Y261578D01*
X140939Y261268D01*
X139616Y260384D01*
X138732Y259061D01*
X138422Y257500D01*
X138500Y257105D01*
X130698Y249302D01*
X130145Y248475D01*
X129951Y247500D01*
Y232500D01*
X130145Y231525D01*
X130698Y230698D01*
X143198Y218198D01*
X144024Y217645D01*
X145000Y217451D01*
X152250D01*
Y216005D01*
X156980D01*
X157750Y216005D01*
X159020Y216005D01*
X162980D01*
X163750Y216005D01*
X165020Y216005D01*
X168980D01*
X169750Y216005D01*
Y216005D01*
X170250D01*
Y216005D01*
X175250D01*
Y215005D01*
X176500D01*
Y219880D01*
X181500D01*
Y215005D01*
X182750D01*
Y216005D01*
X187750D01*
Y217331D01*
X194064D01*
X194377Y217018D01*
Y215026D01*
X193732Y214061D01*
X193422Y212500D01*
X193732Y210939D01*
X194616Y209616D01*
X194951Y209392D01*
Y207669D01*
X187750D01*
Y208995D01*
X182750D01*
Y209995D01*
X181500D01*
Y205120D01*
X176500D01*
Y209995D01*
X175250D01*
Y208995D01*
X170250D01*
Y208995D01*
X169750D01*
Y208995D01*
X164750D01*
Y209995D01*
X163500D01*
Y205120D01*
X158500D01*
Y209995D01*
X157250D01*
Y208995D01*
X152250D01*
Y201245D01*
X152451D01*
Y190049D01*
X151056D01*
X146174Y194931D01*
Y203017D01*
X146509Y203241D01*
X147393Y204564D01*
X147703Y206125D01*
X147393Y207686D01*
X146509Y209009D01*
X145186Y209893D01*
X143625Y210203D01*
X142064Y209893D01*
X140741Y209009D01*
X139857Y207686D01*
X139547Y206125D01*
X139857Y204564D01*
X140741Y203241D01*
X141076Y203017D01*
Y193875D01*
X141270Y192899D01*
X141823Y192073D01*
X148198Y185698D01*
X149024Y185145D01*
X150000Y184951D01*
X185000D01*
X185975Y185145D01*
X186802Y185698D01*
X199302Y198198D01*
X199855Y199025D01*
X200049Y200000D01*
Y209392D01*
X200384Y209616D01*
X201268Y210939D01*
X201578Y212500D01*
X201268Y214061D01*
X200384Y215384D01*
X199475Y215991D01*
Y218074D01*
X199281Y219049D01*
X198728Y219876D01*
X196922Y221682D01*
X196095Y222235D01*
X195120Y222429D01*
X187750D01*
Y223755D01*
X187750D01*
X187929Y224951D01*
X218243D01*
X219218Y225145D01*
X220045Y225698D01*
X232174Y237826D01*
X232726Y238653D01*
X232920Y239629D01*
Y479315D01*
X249302Y495698D01*
X249855Y496525D01*
X250049Y497500D01*
Y562015D01*
X251319Y562446D01*
X252503Y560903D01*
X254435Y559420D01*
X256685Y558488D01*
X259100Y558170D01*
X261515Y558488D01*
X263765Y559420D01*
X265697Y560903D01*
X267180Y562835D01*
X268112Y565085D01*
X268430Y567500D01*
X268112Y569915D01*
X267180Y572165D01*
X265697Y574097D01*
X263765Y575580D01*
X261515Y576512D01*
X259100Y576830D01*
X256685Y576512D01*
X254435Y575580D01*
X252503Y574097D01*
X251319Y572554D01*
X250049Y572985D01*
Y576200D01*
X249855Y577175D01*
X249302Y578002D01*
X240603Y586702D01*
X241780Y588235D01*
X242712Y590485D01*
X243030Y592900D01*
X242712Y595315D01*
X241780Y597565D01*
X240297Y599497D01*
X238365Y600980D01*
X236115Y601912D01*
X233700Y602230D01*
D02*
G37*
G36*
X167509Y565000D02*
X160000D01*
Y557491D01*
X160176Y557514D01*
X162669Y558547D01*
X164810Y560190D01*
X166453Y562331D01*
X167486Y564824D01*
X167509Y565000D01*
D02*
G37*
G36*
X155000D02*
X147491D01*
X147514Y564824D01*
X148547Y562331D01*
X150190Y560190D01*
X152331Y558547D01*
X154824Y557514D01*
X155000Y557491D01*
Y565000D01*
D02*
G37*
G36*
X179500Y542250D02*
X175000D01*
Y537500D01*
X179500D01*
Y542250D01*
D02*
G37*
G36*
X170000D02*
X165500D01*
Y537500D01*
X170000D01*
Y542250D01*
D02*
G37*
G36*
X159500D02*
X155000D01*
Y537500D01*
X159500D01*
Y542250D01*
D02*
G37*
G36*
X150000D02*
X145500D01*
Y537500D01*
X150000D01*
Y542250D01*
D02*
G37*
G36*
X132100Y576830D02*
X129685Y576512D01*
X127435Y575580D01*
X125503Y574097D01*
X124020Y572165D01*
X123088Y569915D01*
X122770Y567500D01*
X123088Y565085D01*
X124020Y562835D01*
X125503Y560903D01*
X127435Y559420D01*
X129685Y558488D01*
X131126Y558298D01*
Y548250D01*
X130000D01*
Y536750D01*
X140500D01*
Y548250D01*
X136224D01*
Y559196D01*
X136765Y559420D01*
X138697Y560903D01*
X140180Y562835D01*
X141112Y565085D01*
X141430Y567500D01*
X141112Y569915D01*
X140180Y572165D01*
X138697Y574097D01*
X136765Y575580D01*
X134515Y576512D01*
X132100Y576830D01*
D02*
G37*
G36*
X141500Y534250D02*
X137750D01*
Y530000D01*
X141500D01*
Y534250D01*
D02*
G37*
G36*
X132750D02*
X129000D01*
Y530000D01*
X132750D01*
Y534250D01*
D02*
G37*
G36*
X179500Y532500D02*
X175000D01*
Y527750D01*
X179500D01*
Y532500D01*
D02*
G37*
G36*
X170000D02*
X165500D01*
Y527750D01*
X170000D01*
Y532500D01*
D02*
G37*
G36*
X159500D02*
X155000D01*
Y527750D01*
X159500D01*
Y532500D01*
D02*
G37*
G36*
X150000D02*
X145500D01*
Y527750D01*
X150000D01*
Y532500D01*
D02*
G37*
G36*
X197300Y539078D02*
X194951Y538768D01*
X192761Y537862D01*
X190881Y536419D01*
X189439Y534539D01*
X188532Y532350D01*
X188222Y530000D01*
X188532Y527650D01*
X189439Y525461D01*
X190881Y523581D01*
X192761Y522139D01*
X194951Y521232D01*
X197300Y520922D01*
X199650Y521232D01*
X201839Y522139D01*
X203719Y523581D01*
X205161Y525461D01*
X206068Y527650D01*
X206378Y530000D01*
X206068Y532350D01*
X205161Y534539D01*
X203719Y536419D01*
X201839Y537862D01*
X199650Y538768D01*
X197300Y539078D01*
D02*
G37*
G36*
X141500Y525000D02*
X137750D01*
Y520750D01*
X141500D01*
Y525000D01*
D02*
G37*
G36*
X132750D02*
X129000D01*
Y520750D01*
X132750D01*
Y525000D01*
D02*
G37*
G36*
X182500Y499843D02*
X180647Y499474D01*
X179075Y498425D01*
X178026Y496853D01*
X177708Y495254D01*
X154977Y472523D01*
X154203Y471366D01*
X153931Y470000D01*
Y401209D01*
X153026Y399853D01*
X152657Y398000D01*
X153026Y396147D01*
X154075Y394575D01*
X155647Y393526D01*
X157500Y393157D01*
X159353Y393526D01*
X160925Y394575D01*
X161974Y396147D01*
X162343Y398000D01*
X161974Y399853D01*
X161069Y401209D01*
Y468522D01*
X182754Y490207D01*
X184353Y490526D01*
X185924Y491575D01*
X186974Y493147D01*
X187343Y495000D01*
X186974Y496853D01*
X185924Y498425D01*
X184353Y499474D01*
X182500Y499843D01*
D02*
G37*
G36*
X186750Y291750D02*
X177250D01*
Y286250D01*
X186750D01*
Y291750D01*
D02*
G37*
G36*
X162750D02*
X153250D01*
Y286250D01*
X162750D01*
Y291750D01*
D02*
G37*
G36*
X195000Y312343D02*
X193147Y311974D01*
X191575Y310924D01*
X190526Y309353D01*
X190157Y307500D01*
X190526Y305647D01*
X191575Y304075D01*
X192451Y303490D01*
Y283556D01*
X192444Y283549D01*
X186750D01*
Y283750D01*
X177250D01*
Y278250D01*
X186750D01*
Y278451D01*
X192451D01*
Y276056D01*
X191944Y275549D01*
X186750D01*
Y275750D01*
X177250D01*
Y270250D01*
X186750D01*
Y270451D01*
X193000D01*
X193976Y270645D01*
X194802Y271198D01*
X196802Y273198D01*
X197355Y274025D01*
X197549Y275000D01*
Y282500D01*
Y303490D01*
X198424Y304075D01*
X199474Y305647D01*
X199843Y307500D01*
X199474Y309353D01*
X198424Y310924D01*
X196853Y311974D01*
X195000Y312343D01*
D02*
G37*
G36*
X162750Y283750D02*
X153250D01*
Y278250D01*
X162750D01*
Y283750D01*
D02*
G37*
G36*
Y275750D02*
X153250D01*
Y270250D01*
X162750D01*
Y275750D01*
D02*
G37*
G36*
X163750Y268750D02*
X160500D01*
Y267500D01*
X163750D01*
Y268750D01*
D02*
G37*
G36*
X155500D02*
X152250D01*
Y267500D01*
X155500D01*
Y268750D01*
D02*
G37*
G36*
X163750Y262500D02*
X160500D01*
Y261250D01*
X163750D01*
Y262500D01*
D02*
G37*
G36*
X155500D02*
X152250D01*
Y261250D01*
X155500D01*
Y262500D01*
D02*
G37*
G36*
X187750Y260750D02*
X184500D01*
Y259500D01*
X187750D01*
Y260750D01*
D02*
G37*
G36*
X179500D02*
X176250D01*
Y259500D01*
X179500D01*
Y260750D01*
D02*
G37*
G36*
X187750Y254500D02*
X184500D01*
Y253250D01*
X187750D01*
Y254500D01*
D02*
G37*
G36*
X179500D02*
X176250D01*
Y253250D01*
X179500D01*
Y254500D01*
D02*
G37*
G36*
X186750Y243750D02*
X177250D01*
Y238250D01*
X186750D01*
Y243750D01*
D02*
G37*
G36*
X162750D02*
X153250D01*
Y238250D01*
X162750D01*
Y243750D01*
D02*
G37*
G36*
X300000Y286339D02*
X295528Y285987D01*
X291166Y284940D01*
X287021Y283223D01*
X283196Y280879D01*
X279785Y277966D01*
X276872Y274555D01*
X274528Y270730D01*
X272811Y266585D01*
X271764Y262223D01*
X271412Y257751D01*
X271764Y253279D01*
X272811Y248917D01*
X274528Y244772D01*
X276872Y240947D01*
X279785Y237536D01*
X283196Y234623D01*
X287021Y232279D01*
X291166Y230562D01*
X295528Y229515D01*
X300000Y229163D01*
X304472Y229515D01*
X308834Y230562D01*
X312979Y232279D01*
X316804Y234623D01*
X320215Y237536D01*
X323128Y240947D01*
X325472Y244772D01*
X327189Y248917D01*
X328236Y253279D01*
X328588Y257751D01*
X328236Y262223D01*
X327189Y266585D01*
X325472Y270730D01*
X323128Y274555D01*
X320215Y277966D01*
X316804Y280879D01*
X312979Y283223D01*
X308834Y284940D01*
X304472Y285987D01*
X300000Y286339D01*
D02*
G37*
G36*
X35000Y286088D02*
X30528Y285736D01*
X26166Y284689D01*
X22021Y282972D01*
X18196Y280628D01*
X14785Y277715D01*
X11872Y274304D01*
X9528Y270479D01*
X7811Y266334D01*
X6764Y261972D01*
X6412Y257500D01*
X6764Y253028D01*
X7811Y248666D01*
X9528Y244521D01*
X11872Y240696D01*
X14785Y237285D01*
X18196Y234372D01*
X22021Y232028D01*
X26166Y230311D01*
X30528Y229264D01*
X35000Y228912D01*
X39472Y229264D01*
X43834Y230311D01*
X47979Y232028D01*
X51804Y234372D01*
X55215Y237285D01*
X58128Y240696D01*
X60472Y244521D01*
X62189Y248666D01*
X63236Y253028D01*
X63588Y257500D01*
X63236Y261972D01*
X62189Y266334D01*
X60472Y270479D01*
X58128Y274304D01*
X55215Y277715D01*
X51804Y280628D01*
X47979Y282972D01*
X43834Y284689D01*
X39472Y285736D01*
X35000Y286088D01*
D02*
G37*
G36*
X300000Y68839D02*
X295528Y68487D01*
X291166Y67440D01*
X287021Y65723D01*
X283196Y63380D01*
X279785Y60466D01*
X276872Y57055D01*
X274528Y53230D01*
X272811Y49085D01*
X271764Y44723D01*
X271412Y40251D01*
X271764Y35779D01*
X272811Y31417D01*
X274528Y27273D01*
X276872Y23448D01*
X279785Y20036D01*
X283196Y17123D01*
X287021Y14779D01*
X291166Y13062D01*
X295528Y12015D01*
X300000Y11663D01*
X304472Y12015D01*
X308834Y13062D01*
X312979Y14779D01*
X316804Y17123D01*
X320215Y20036D01*
X323128Y23448D01*
X325472Y27273D01*
X327189Y31417D01*
X328236Y35779D01*
X328588Y40251D01*
X328236Y44723D01*
X327189Y49085D01*
X325472Y53230D01*
X323128Y57055D01*
X320215Y60466D01*
X316804Y63380D01*
X312979Y65723D01*
X308834Y67440D01*
X304472Y68487D01*
X300000Y68839D01*
D02*
G37*
G36*
X35000Y66339D02*
X30528Y65987D01*
X26166Y64940D01*
X22021Y63223D01*
X18196Y60880D01*
X14785Y57966D01*
X11872Y54555D01*
X9528Y50730D01*
X7811Y46585D01*
X6764Y42223D01*
X6412Y37751D01*
X6764Y33279D01*
X7811Y28917D01*
X9528Y24773D01*
X11872Y20948D01*
X14785Y17536D01*
X18196Y14623D01*
X22021Y12279D01*
X26166Y10562D01*
X30528Y9515D01*
X35000Y9163D01*
X39472Y9515D01*
X43834Y10562D01*
X47979Y12279D01*
X51804Y14623D01*
X55215Y17536D01*
X58128Y20948D01*
X60472Y24773D01*
X62189Y28917D01*
X63236Y33279D01*
X63588Y37751D01*
X63236Y42223D01*
X62189Y46585D01*
X60472Y50730D01*
X58128Y54555D01*
X55215Y57966D01*
X51804Y60880D01*
X47979Y63223D01*
X43834Y64940D01*
X39472Y65987D01*
X35000Y66339D01*
D02*
G37*
%LPD*%
G36*
X102521Y601181D02*
X102035Y600980D01*
X100103Y599497D01*
X98620Y597565D01*
X97688Y595315D01*
X97370Y592900D01*
X97688Y590485D01*
X98565Y588369D01*
X93198Y583002D01*
X92645Y582175D01*
X92451Y581200D01*
Y560650D01*
X92645Y559674D01*
X93198Y558848D01*
X102451Y549594D01*
Y536353D01*
X101720Y535779D01*
X100500Y536322D01*
Y545750D01*
X93605D01*
X83849Y555506D01*
Y558544D01*
X85965Y559420D01*
X87897Y560903D01*
X89380Y562835D01*
X90312Y565085D01*
X90630Y567500D01*
X90312Y569915D01*
X89380Y572165D01*
X87897Y574097D01*
X85965Y575580D01*
X83715Y576512D01*
X81300Y576830D01*
X78885Y576512D01*
X76635Y575580D01*
X74703Y574097D01*
X73220Y572165D01*
X72288Y569915D01*
X71970Y567500D01*
X72288Y565085D01*
X73220Y562835D01*
X74703Y560903D01*
X76635Y559420D01*
X78751Y558544D01*
Y554450D01*
X78945Y553475D01*
X79498Y552648D01*
X85214Y546931D01*
X84599Y545750D01*
X77605D01*
X70049Y553306D01*
Y578044D01*
X76769Y584765D01*
X78885Y583888D01*
X81300Y583570D01*
X83715Y583888D01*
X85965Y584820D01*
X87897Y586303D01*
X89380Y588235D01*
X90312Y590485D01*
X90630Y592900D01*
X90312Y595315D01*
X89380Y597565D01*
X87897Y599497D01*
X85965Y600980D01*
X85479Y601181D01*
X85732Y602451D01*
X102268D01*
X102521Y601181D01*
D02*
G37*
G36*
X77121D02*
X76635Y600980D01*
X74703Y599497D01*
X73220Y597565D01*
X72288Y595315D01*
X71970Y592900D01*
X72288Y590485D01*
X73165Y588369D01*
X65698Y580902D01*
X65145Y580075D01*
X64951Y579100D01*
Y572985D01*
X63681Y572554D01*
X62497Y574097D01*
X60565Y575580D01*
X58315Y576512D01*
X55900Y576830D01*
X53485Y576512D01*
X51235Y575580D01*
X49303Y574097D01*
X47820Y572165D01*
X46888Y569915D01*
X46570Y567500D01*
X46888Y565085D01*
X47820Y562835D01*
X49303Y560903D01*
X51235Y559420D01*
X53033Y558675D01*
Y529418D01*
X53227Y528442D01*
X53780Y527615D01*
X65331Y516064D01*
X64813Y514794D01*
X61311D01*
X45049Y531056D01*
Y578444D01*
X51369Y584765D01*
X53485Y583888D01*
X55900Y583570D01*
X58315Y583888D01*
X60565Y584820D01*
X62497Y586303D01*
X63980Y588235D01*
X64912Y590485D01*
X65230Y592900D01*
X64912Y595315D01*
X63980Y597565D01*
X62497Y599497D01*
X60565Y600980D01*
X60079Y601181D01*
X60332Y602451D01*
X76868D01*
X77121Y601181D01*
D02*
G37*
G36*
X51721D02*
X51235Y600980D01*
X49303Y599497D01*
X47820Y597565D01*
X46888Y595315D01*
X46570Y592900D01*
X46888Y590485D01*
X47765Y588369D01*
X40698Y581302D01*
X40145Y580476D01*
X39951Y579500D01*
Y577937D01*
X39750Y576750D01*
X38681Y576750D01*
X21250D01*
Y558250D01*
X39750Y558250D01*
X39951Y557063D01*
Y530000D01*
X40145Y529025D01*
X40698Y528198D01*
X58198Y510698D01*
X59025Y510145D01*
X60000Y509951D01*
X60975Y510145D01*
X61067Y510206D01*
X81300D01*
Y510100D01*
X81413D01*
X82600Y509900D01*
Y503800D01*
X82706D01*
Y496680D01*
X81575Y495925D01*
X80526Y494353D01*
X80157Y492500D01*
X80526Y490647D01*
X81575Y489076D01*
X83147Y488026D01*
X85000Y487657D01*
X86853Y488026D01*
X88425Y489076D01*
X89474Y490647D01*
X89843Y492500D01*
X89474Y494353D01*
X88425Y495925D01*
X87294Y496680D01*
Y502800D01*
X87500D01*
Y506850D01*
X92500D01*
D01*
X97500D01*
Y502800D01*
X97706D01*
Y483811D01*
X88944Y475049D01*
X36056D01*
X17549Y493556D01*
Y596444D01*
X23556Y602451D01*
X26068D01*
X26321Y601181D01*
X25835Y600980D01*
X23903Y599497D01*
X22420Y597565D01*
X21488Y595315D01*
X21170Y592900D01*
X21488Y590485D01*
X22420Y588235D01*
X23903Y586303D01*
X25835Y584820D01*
X28085Y583888D01*
X30500Y583570D01*
X32915Y583888D01*
X35165Y584820D01*
X37097Y586303D01*
X38580Y588235D01*
X39512Y590485D01*
X39830Y592900D01*
X39512Y595315D01*
X38580Y597565D01*
X37097Y599497D01*
X35165Y600980D01*
X34679Y601181D01*
X34932Y602451D01*
X51468D01*
X51721Y601181D01*
D02*
G37*
G36*
X102035Y559420D02*
X104285Y558488D01*
X106700Y558170D01*
X109115Y558488D01*
X111231Y559365D01*
X117201Y553394D01*
Y548250D01*
X114500D01*
Y540355D01*
X108769Y534624D01*
X108025Y534853D01*
X107549Y535200D01*
Y550650D01*
X107355Y551625D01*
X106802Y552452D01*
X99458Y559797D01*
X100297Y560754D01*
X102035Y559420D01*
D02*
G37*
G36*
X64951Y562015D02*
Y552250D01*
X65145Y551275D01*
X65698Y550448D01*
X74500Y541645D01*
Y534250D01*
X84375D01*
X84760Y532980D01*
X84616Y532884D01*
X83732Y531561D01*
X83422Y530000D01*
X83726Y528470D01*
X83766Y528241D01*
X83035Y527200D01*
X81600D01*
Y525650D01*
X85000D01*
Y520650D01*
X81600D01*
Y519900D01*
X81300D01*
Y519794D01*
X68811D01*
X58131Y530474D01*
Y558464D01*
X58315Y558488D01*
X60565Y559420D01*
X62497Y560903D01*
X63681Y562446D01*
X64951Y562015D01*
D02*
G37*
D10*
X95000Y523150D02*
Y539750D01*
X100000Y523150D02*
Y530000D01*
Y523150D02*
X100000Y523150D01*
Y482500D02*
Y506850D01*
X87500Y530000D02*
X90000Y527500D01*
Y523150D02*
Y527500D01*
X100650Y517500D02*
X107500D01*
X107600Y517600D01*
X100650Y512500D02*
X117250D01*
X67500Y517500D02*
X84350D01*
X85000Y492500D02*
Y506850D01*
X60000Y512500D02*
X84350D01*
D15*
X79350Y523150D02*
X85000D01*
X77500Y525000D02*
X79350Y523150D01*
D20*
X119750Y527500D02*
D03*
X135250D02*
D03*
Y510000D02*
D03*
X119750D02*
D03*
X135250Y542500D02*
D03*
X119750D02*
D03*
X79750Y540000D02*
D03*
X95250D02*
D03*
D23*
X152500Y535000D02*
D03*
Y520000D02*
D03*
X172500Y535000D02*
D03*
Y520000D02*
D03*
D39*
X157500Y398000D02*
Y470000D01*
X182500Y495000D01*
D40*
X100000Y530000D02*
X105000Y535000D01*
X165000Y195000D02*
Y198312D01*
X35000Y472500D02*
X90000D01*
X15000Y492500D02*
Y597500D01*
Y492500D02*
X35000Y472500D01*
X90000D02*
X100000Y482500D01*
X15000Y597500D02*
X22500Y605000D01*
X120000D01*
X132100Y592900D01*
X67500Y552250D02*
X76500Y543250D01*
X67500Y579100D02*
X81300Y592900D01*
X67500Y552250D02*
Y579100D01*
X42500Y530000D02*
X60000Y512500D01*
X42500Y579500D02*
X55900Y592900D01*
X42500Y530000D02*
Y579500D01*
X79750Y540000D02*
Y540500D01*
X77000Y543250D02*
X79750Y540500D01*
X76500Y543250D02*
X77000D01*
X250000Y470000D02*
X297500Y517500D01*
X250000Y202500D02*
Y470000D01*
X297500Y517500D02*
Y579900D01*
X284500Y592900D02*
X297500Y579900D01*
X240000Y210000D02*
Y475000D01*
X272500Y507500D02*
Y577500D01*
X240000Y475000D02*
X272500Y507500D01*
X259100Y590900D02*
X272500Y577500D01*
X259100Y590900D02*
Y592900D01*
X230371Y480371D02*
X247500Y497500D01*
X230371Y239629D02*
Y480371D01*
X247500Y497500D02*
Y576200D01*
X233500Y590200D02*
X247500Y576200D01*
X242500Y195000D02*
X250000Y202500D01*
X217500Y187500D02*
X240000Y210000D01*
X218243Y227500D02*
X230371Y239629D01*
X210000Y232500D02*
X220000Y242500D01*
X175000Y227500D02*
X218243D01*
X220000Y485000D02*
X235000Y500000D01*
X220000Y242500D02*
Y485000D01*
X235000Y500000D02*
Y548097D01*
X197500Y206250D02*
Y212500D01*
Y200000D02*
Y206250D01*
X185000Y205120D02*
X196370D01*
X197500Y206250D01*
X185000Y187500D02*
X197500Y200000D01*
X195120Y219880D02*
X196926Y218074D01*
X185000Y219880D02*
X195120D01*
X196926Y213074D02*
X197500Y212500D01*
X196926Y213074D02*
Y218074D01*
X155000Y187500D02*
X185000D01*
X150000D02*
X155000D01*
Y205120D01*
X143625Y193875D02*
X150000Y187500D01*
X143625Y193875D02*
Y206125D01*
X173179Y199321D02*
X177500Y195000D01*
X166750Y200062D02*
Y204870D01*
X165000Y198312D02*
X166750Y200062D01*
X173000Y205120D02*
X173179Y204941D01*
Y199321D02*
Y204941D01*
X132500Y247500D02*
X142500Y257500D01*
X157750Y257250D02*
X158000Y257000D01*
X142750Y257250D02*
X157750D01*
X142500Y257500D02*
X142750Y257250D01*
X107600Y517600D02*
X109718Y519718D01*
Y531968D01*
X117250Y512500D02*
X119750Y510000D01*
X105000Y535000D02*
Y550650D01*
X95000Y539750D02*
Y540750D01*
X81300Y554450D02*
Y567500D01*
Y554450D02*
X95000Y540750D01*
X55582Y529418D02*
Y567182D01*
Y529418D02*
X67500Y517500D01*
X167250Y220130D02*
Y229750D01*
X170000Y232500D02*
X210000D01*
X167250Y229750D02*
X170000Y232500D01*
X173000Y225500D02*
X175000Y227500D01*
X173000Y219880D02*
Y225500D01*
X154880Y220000D02*
X155000Y219880D01*
X132500Y232500D02*
X145000Y220000D01*
X154880D01*
X142500Y240000D02*
Y245000D01*
Y235000D02*
Y240000D01*
X146500Y249000D02*
X158000D01*
X142500Y245000D02*
X146500Y249000D01*
X142500Y235000D02*
X147500Y230000D01*
X157500D01*
X160010Y227490D02*
X161000Y226500D01*
X157500Y230000D02*
X160010Y227490D01*
X161000Y219880D02*
Y226500D01*
X182000Y249000D02*
X196500D01*
X210000Y262500D01*
Y270000D01*
X195000Y282500D02*
Y307500D01*
Y275000D02*
Y282500D01*
X182000Y281000D02*
X193500D01*
X195000Y282500D01*
X193000Y273000D02*
X195000Y275000D01*
X182000Y273000D02*
X193000D01*
X182000Y265000D02*
X195000D01*
X202500Y272500D01*
X195000Y555000D02*
X210500Y539500D01*
Y270500D02*
Y539500D01*
X210000Y270000D02*
X210500Y270500D01*
X166750Y204870D02*
X167000Y205120D01*
X185453Y580150D02*
Y590347D01*
X182900Y592900D02*
X185453Y590347D01*
Y580150D02*
X195000Y570603D01*
Y555000D02*
Y570603D01*
X132500Y232500D02*
Y247500D01*
X133250Y544500D02*
X133675Y544925D01*
X110000Y492500D02*
X117750D01*
X135250Y510000D01*
X152500Y519750D02*
Y520000D01*
X149000Y516250D02*
X152500Y519750D01*
X141000Y516250D02*
X149000D01*
X135250Y510500D02*
X141000Y516250D01*
X135250Y510000D02*
Y510500D01*
X152500Y520000D02*
X172500D01*
X210853Y580150D02*
Y590347D01*
X219879Y563218D02*
X235000Y548097D01*
X208300Y592900D02*
X210853Y590347D01*
Y580150D02*
X219879Y571124D01*
Y563218D02*
Y571124D01*
X132100Y567500D02*
X133675Y565925D01*
Y544925D02*
Y565925D01*
X95000Y560650D02*
X105000Y550650D01*
X95000Y581200D02*
X106700Y592900D01*
X95000Y560650D02*
Y581200D01*
X55582Y567182D02*
X55900Y567500D01*
X133250Y544500D02*
X135250Y542500D01*
X119750Y542000D02*
Y542500D01*
X109718Y531968D02*
X119750Y542000D01*
Y542500D02*
Y554450D01*
X106700Y567500D02*
X119750Y554450D01*
Y510000D02*
Y527500D01*
X167000Y219880D02*
X167250Y220130D01*
D42*
X309900Y592900D02*
D03*
X284500D02*
D03*
X309900Y567500D02*
D03*
X284500D02*
D03*
X233700Y592900D02*
D03*
Y567500D02*
D03*
X182900Y592900D02*
D03*
Y567500D02*
D03*
X106700Y592900D02*
D03*
Y567500D02*
D03*
X81300Y592900D02*
D03*
Y567500D02*
D03*
X30500Y592900D02*
D03*
X55900Y567500D02*
D03*
Y592900D02*
D03*
X132100Y567500D02*
D03*
Y592900D02*
D03*
X157500Y567500D02*
D03*
Y592900D02*
D03*
X208300Y567500D02*
D03*
Y592900D02*
D03*
X259100Y567500D02*
D03*
Y592900D02*
D03*
D43*
X30500Y567500D02*
D03*
D44*
X222700Y530000D02*
D03*
D45*
X197300D02*
D03*
D46*
X35000Y37751D02*
D03*
X300000Y40251D02*
D03*
Y257751D02*
D03*
X35000Y257500D02*
D03*
D47*
X75000Y495000D02*
D03*
X77500Y525000D02*
D03*
X165000Y195000D02*
D03*
X87500Y530000D02*
D03*
X242500Y195000D02*
D03*
X220000Y242500D02*
D03*
X217500Y187500D02*
D03*
X177500Y195000D02*
D03*
X142500Y257500D02*
D03*
X202500Y272500D02*
D03*
X210000Y270000D02*
D03*
X110000Y492500D02*
D03*
X143625Y206125D02*
D03*
X197500Y212500D02*
D03*
D48*
X330000Y580000D02*
D03*
Y520000D02*
D03*
Y460000D02*
D03*
X315000Y430000D02*
D03*
X330000Y400000D02*
D03*
X315000Y370000D02*
D03*
X330000Y340000D02*
D03*
X315000Y310000D02*
D03*
X330000Y280000D02*
D03*
Y220000D02*
D03*
X315000Y190000D02*
D03*
X330000Y160000D02*
D03*
X315000Y130000D02*
D03*
X330000Y100000D02*
D03*
X315000Y70000D02*
D03*
Y10000D02*
D03*
X285000Y550000D02*
D03*
Y490000D02*
D03*
X300000Y460000D02*
D03*
X285000Y430000D02*
D03*
X300000Y400000D02*
D03*
X285000Y370000D02*
D03*
X300000Y340000D02*
D03*
X285000Y310000D02*
D03*
X300000Y220000D02*
D03*
X285000Y190000D02*
D03*
X300000Y160000D02*
D03*
X285000Y130000D02*
D03*
X300000Y100000D02*
D03*
X285000Y70000D02*
D03*
Y10000D02*
D03*
X270000Y460000D02*
D03*
Y400000D02*
D03*
Y340000D02*
D03*
Y280000D02*
D03*
Y220000D02*
D03*
X255000Y190000D02*
D03*
X270000Y160000D02*
D03*
X255000Y130000D02*
D03*
X270000Y100000D02*
D03*
X255000Y70000D02*
D03*
Y10000D02*
D03*
X240000Y160000D02*
D03*
X225000Y130000D02*
D03*
X240000Y100000D02*
D03*
X225000Y70000D02*
D03*
X240000Y40000D02*
D03*
X225000Y10000D02*
D03*
X195000Y370000D02*
D03*
X210000Y220000D02*
D03*
Y160000D02*
D03*
X195000Y130000D02*
D03*
X210000Y100000D02*
D03*
X195000Y70000D02*
D03*
X210000Y40000D02*
D03*
X195000Y10000D02*
D03*
X165000Y550000D02*
D03*
Y490000D02*
D03*
X180000Y460000D02*
D03*
X165000Y370000D02*
D03*
X180000Y340000D02*
D03*
X165000Y310000D02*
D03*
X180000Y160000D02*
D03*
X165000Y130000D02*
D03*
X180000Y100000D02*
D03*
X165000Y70000D02*
D03*
X180000Y40000D02*
D03*
X165000Y10000D02*
D03*
X150000Y580000D02*
D03*
Y460000D02*
D03*
X135000Y430000D02*
D03*
Y370000D02*
D03*
X150000Y160000D02*
D03*
X135000Y130000D02*
D03*
X150000Y100000D02*
D03*
X135000Y70000D02*
D03*
X150000Y40000D02*
D03*
X135000Y10000D02*
D03*
X120000Y580000D02*
D03*
Y340000D02*
D03*
X105000Y310000D02*
D03*
Y250000D02*
D03*
Y190000D02*
D03*
X120000Y160000D02*
D03*
X105000Y130000D02*
D03*
X120000Y100000D02*
D03*
X105000Y70000D02*
D03*
X120000Y40000D02*
D03*
X105000Y10000D02*
D03*
X75000Y310000D02*
D03*
Y250000D02*
D03*
X90000Y220000D02*
D03*
X75000Y190000D02*
D03*
X90000Y160000D02*
D03*
X75000Y130000D02*
D03*
X90000Y100000D02*
D03*
X75000Y70000D02*
D03*
X90000Y40000D02*
D03*
X75000Y10000D02*
D03*
X60000Y460000D02*
D03*
X45000Y370000D02*
D03*
Y310000D02*
D03*
X60000Y280000D02*
D03*
Y220000D02*
D03*
X45000Y190000D02*
D03*
X60000Y160000D02*
D03*
X45000Y130000D02*
D03*
X60000Y100000D02*
D03*
X45000Y70000D02*
D03*
X30000Y460000D02*
D03*
X15000Y430000D02*
D03*
X30000Y400000D02*
D03*
X15000Y370000D02*
D03*
X30000Y340000D02*
D03*
X15000Y310000D02*
D03*
X30000Y220000D02*
D03*
X15000Y190000D02*
D03*
X30000Y160000D02*
D03*
X15000Y130000D02*
D03*
X30000Y100000D02*
D03*
X15000Y70000D02*
D03*
Y10000D02*
D03*
X85000Y492500D02*
D03*
X142500Y240000D02*
D03*
X182500Y495000D02*
D03*
X157500Y398000D02*
D03*
X195000Y307500D02*
D03*
D49*
X90000Y506850D02*
D03*
X100000Y523150D02*
D03*
X95000D02*
D03*
X90000D02*
D03*
X85000D02*
D03*
X100000Y506850D02*
D03*
X95000D02*
D03*
X85000D02*
D03*
D50*
X100650Y512500D02*
D03*
Y517500D02*
D03*
X84350D02*
D03*
Y512500D02*
D03*
D51*
X161000Y205120D02*
D03*
Y219880D02*
D03*
X173000Y205120D02*
D03*
X185000D02*
D03*
X179000D02*
D03*
X167000D02*
D03*
X155000D02*
D03*
X185000Y219880D02*
D03*
X179000D02*
D03*
X173000D02*
D03*
X155000D02*
D03*
X167000D02*
D03*
D52*
X182000Y241000D02*
D03*
Y249000D02*
D03*
Y257000D02*
D03*
Y265000D02*
D03*
Y273000D02*
D03*
Y281000D02*
D03*
Y289000D02*
D03*
X158000D02*
D03*
Y281000D02*
D03*
Y273000D02*
D03*
Y265000D02*
D03*
Y257000D02*
D03*
Y249000D02*
D03*
Y241000D02*
D03*
M02*
